%FlightEnvelope_MTOW_CLIMB
\begin{tikzpicture}

\begin{axis}[
width=\figurewidth,
height=\figureheight,
scaled ticks=false, tick label style={/pgf/number format/fixed},
xmin=0.0,
xmax=11880.0,
xlabel={Altitude (m)},
xmajorgrids,
ymin=0.0,
ymax=163.37482515119328,
ylabel={Speed (m/s)},
ymajorgrids,
legend style={at={(1.03,0.5)},anchor=west,draw=black,fill=white,legend cell align=left}
]

\addplot [
color=black,
solid
]
table[row sep=crcr]{
0.0	112.05107723265913\\
224.48979591836735	112.25493515690165\\
448.9795918367347	111.83293859654071\\
673.469387755102	110.42483265155023\\
897.9591836734694	89.8489892312415\\
1122.4489795918366	0.0\\
1346.9387755102039	0.0\\
1571.428571428571	0.0\\
1795.9183673469383	0.0\\
2020.4081632653056	0.0\\
2244.897959183673	0.0\\
2469.38775510204	0.0\\
2693.8775510204073	0.0\\
2918.3673469387745	0.0\\
3142.8571428571418	0.0\\
3367.346938775509	0.0\\
3591.836734693876	0.0\\
3816.3265306122435	0.0\\
4040.8163265306107	0.0\\
4265.306122448978	0.0\\
4489.795918367346	0.0\\
4714.285714285713	0.0\\
4938.77551020408	0.0\\
5163.265306122447	0.0\\
5387.755102040815	0.0\\
5612.244897959182	0.0\\
5836.734693877549	0.0\\
6061.224489795916	0.0\\
6285.7142857142835	0.0\\
6510.204081632651	0.0\\
6734.693877551018	0.0\\
6959.183673469385	0.0\\
7183.673469387752	0.0\\
7408.16326530612	0.0\\
7632.653061224487	0.0\\
7857.142857142854	0.0\\
8081.632653061221	0.0\\
8306.12244897959	0.0\\
8530.612244897957	0.0\\
8755.102040816324	0.0\\
8979.591836734691	0.0\\
9204.081632653058	0.0\\
9428.571428571426	0.0\\
9653.061224489793	0.0\\
9877.55102040816	0.0\\
10102.040816326527	0.0\\
10326.530612244895	0.0\\
10551.020408163262	0.0\\
10775.51020408163	0.0\\
10999.999999999996	0.0\\
11000.0	0.0\\
10775.510204081633	0.0\\
10551.020408163266	0.0\\
10326.530612244898	0.0\\
10102.040816326531	0.0\\
9877.551020408164	0.0\\
9653.061224489797	0.0\\
9428.57142857143	0.0\\
9204.081632653062	0.0\\
8979.591836734695	0.0\\
8755.102040816328	0.0\\
8530.61224489796	0.0\\
8306.122448979593	0.0\\
8081.632653061226	0.0\\
7857.142857142859	0.0\\
7632.6530612244915	0.0\\
7408.163265306124	0.0\\
7183.673469387757	0.0\\
6959.18367346939	0.0\\
6734.6938775510225	0.0\\
6510.204081632655	0.0\\
6285.714285714288	0.0\\
6061.224489795921	0.0\\
5836.734693877554	0.0\\
5612.244897959186	0.0\\
5387.755102040819	0.0\\
5163.265306122452	0.0\\
4938.775510204085	0.0\\
4714.285714285717	0.0\\
4489.79591836735	0.0\\
4265.306122448983	0.0\\
4040.8163265306157	0.0\\
3816.3265306122485	0.0\\
3591.836734693881	0.0\\
3367.346938775514	0.0\\
3142.8571428571468	0.0\\
2918.3673469387795	0.0\\
2693.8775510204123	0.0\\
2469.387755102045	0.0\\
2244.897959183678	0.0\\
2020.4081632653106	0.0\\
1795.9183673469433	0.0\\
1571.428571428576	0.0\\
1346.9387755102089	0.0\\
1122.4489795918416	0.0\\
897.9591836734743	0.0\\
673.4693877551069	0.0\\
448.9795918367396	0.0\\
224.48979591837224	0.0\\
} node[above,pos=0.1] {phi = 0.7 };

\addplot [
color=black,
densely dashed
]
table[row sep=crcr]{
0.0	85.36779049435789\\
224.48979591836735	86.29500329094198\\
448.9795918367347	87.23702840814282\\
673.469387755102	88.19417933632003\\
897.9591836734694	89.16677784605098\\
1122.4489795918366	90.15515425076856\\
1346.9387755102039	91.15964767913867\\
1571.428571428571	92.18060635758972\\
1795.9183673469383	93.21838790342925\\
2020.4081632653056	94.27335962900136\\
2244.897959183673	95.34589885736277\\
2469.38775510204	124.26464097585763\\
2693.8775510204073	120.57333442837597\\
2918.3673469387745	103.25507246626017\\
3142.8571428571418	0.0\\
3367.346938775509	0.0\\
3591.836734693876	0.0\\
3816.3265306122435	0.0\\
4040.8163265306107	0.0\\
4265.306122448978	0.0\\
4489.795918367346	0.0\\
4714.285714285713	0.0\\
4938.77551020408	0.0\\
5163.265306122447	0.0\\
5387.755102040815	0.0\\
5612.244897959182	0.0\\
5836.734693877549	0.0\\
6061.224489795916	0.0\\
6285.7142857142835	0.0\\
6510.204081632651	0.0\\
6734.693877551018	0.0\\
6959.183673469385	0.0\\
7183.673469387752	0.0\\
7408.16326530612	0.0\\
7632.653061224487	0.0\\
7857.142857142854	0.0\\
8081.632653061221	0.0\\
8306.12244897959	0.0\\
8530.612244897957	0.0\\
8755.102040816324	0.0\\
8979.591836734691	0.0\\
9204.081632653058	0.0\\
9428.571428571426	0.0\\
9653.061224489793	0.0\\
9877.55102040816	0.0\\
10102.040816326527	0.0\\
10326.530612244895	0.0\\
10551.020408163262	0.0\\
10775.51020408163	0.0\\
10999.999999999996	0.0\\
11000.0	0.0\\
10775.510204081633	0.0\\
10551.020408163266	0.0\\
10326.530612244898	0.0\\
10102.040816326531	0.0\\
9877.551020408164	0.0\\
9653.061224489797	0.0\\
9428.57142857143	0.0\\
9204.081632653062	0.0\\
8979.591836734695	0.0\\
8755.102040816328	0.0\\
8530.61224489796	0.0\\
8306.122448979593	0.0\\
8081.632653061226	0.0\\
7857.142857142859	0.0\\
7632.6530612244915	0.0\\
7408.163265306124	0.0\\
7183.673469387757	0.0\\
6959.18367346939	0.0\\
6734.6938775510225	0.0\\
6510.204081632655	0.0\\
6285.714285714288	0.0\\
6061.224489795921	0.0\\
5836.734693877554	0.0\\
5612.244897959186	0.0\\
5387.755102040819	0.0\\
5163.265306122452	0.0\\
4938.775510204085	0.0\\
4714.285714285717	0.0\\
4489.79591836735	0.0\\
4265.306122448983	0.0\\
4040.8163265306157	0.0\\
3816.3265306122485	0.0\\
3591.836734693881	0.0\\
3367.346938775514	0.0\\
3142.8571428571468	0.0\\
2918.3673469387795	0.0\\
2693.8775510204123	0.0\\
2469.387755102045	0.0\\
2244.897959183678	127.12218516325252\\
2020.4081632653106	129.39180184281417\\
1795.9183673469433	131.317486944679\\
1571.428571428576	132.84167717033597\\
1346.9387755102089	133.95657158322305\\
1122.4489795918416	134.777561877411\\
897.9591836734743	135.35096415614868\\
673.4693877551069	135.60899413999522\\
448.9795918367396	135.52490114695428\\
224.48979591837224	135.11579311182552\\
} node[above,pos=0.16] {0.85 };

\addplot [
color=black,
dashdotted
]
table[row sep=crcr]{
0.0	85.36779049435789\\
224.48979591836735	86.29500329094198\\
448.9795918367347	87.23702840814282\\
673.469387755102	88.19417933632003\\
897.9591836734694	89.16677784605098\\
1122.4489795918366	90.15515425076856\\
1346.9387755102039	91.15964767913867\\
1571.428571428571	92.18060635758972\\
1795.9183673469383	93.21838790342925\\
2020.4081632653056	94.27335962900136\\
2244.897959183673	95.34589885736277\\
2469.38775510204	96.43639324997561\\
2693.8775510204073	97.5452411469441\\
2918.3673469387745	98.67285192034284\\
3142.8571428571418	99.81964634121579\\
3367.346938775509	100.98605696085181\\
3591.836734693876	102.17252850697356\\
3816.3265306122435	103.37951829550859\\
4040.8163265306107	104.60749665864464\\
4265.306122448978	133.04585689437852\\
4489.795918367346	108.68750985537544\\
4714.285714285713	0.0\\
4938.77551020408	0.0\\
5163.265306122447	0.0\\
5387.755102040815	0.0\\
5612.244897959182	0.0\\
5836.734693877549	0.0\\
6061.224489795916	0.0\\
6285.7142857142835	0.0\\
6510.204081632651	0.0\\
6734.693877551018	0.0\\
6959.183673469385	0.0\\
7183.673469387752	0.0\\
7408.16326530612	0.0\\
7632.653061224487	0.0\\
7857.142857142854	0.0\\
8081.632653061221	0.0\\
8306.12244897959	0.0\\
8530.612244897957	0.0\\
8755.102040816324	0.0\\
8979.591836734691	0.0\\
9204.081632653058	0.0\\
9428.571428571426	0.0\\
9653.061224489793	0.0\\
9877.55102040816	0.0\\
10102.040816326527	0.0\\
10326.530612244895	0.0\\
10551.020408163262	0.0\\
10775.51020408163	0.0\\
10999.999999999996	0.0\\
11000.0	0.0\\
10775.510204081633	0.0\\
10551.020408163266	0.0\\
10326.530612244898	0.0\\
10102.040816326531	0.0\\
9877.551020408164	0.0\\
9653.061224489797	0.0\\
9428.57142857143	0.0\\
9204.081632653062	0.0\\
8979.591836734695	0.0\\
8755.102040816328	0.0\\
8530.61224489796	0.0\\
8306.122448979593	0.0\\
8081.632653061226	0.0\\
7857.142857142859	0.0\\
7632.6530612244915	0.0\\
7408.163265306124	0.0\\
7183.673469387757	0.0\\
6959.18367346939	0.0\\
6734.6938775510225	0.0\\
6510.204081632655	0.0\\
6285.714285714288	0.0\\
6061.224489795921	0.0\\
5836.734693877554	0.0\\
5612.244897959186	0.0\\
5387.755102040819	0.0\\
5163.265306122452	0.0\\
4938.775510204085	0.0\\
4714.285714285717	0.0\\
4489.79591836735	0.0\\
4265.306122448983	0.0\\
4040.8163265306157	136.35330413625613\\
3816.3265306122485	138.75336569896882\\
3591.836734693881	140.61678824711817\\
3367.346938775514	142.0662358417029\\
3142.8571428571468	143.259651273494\\
2918.3673469387795	144.28391780559366\\
2693.8775510204123	145.38575636548114\\
2469.387755102045	146.54808894466882\\
2244.897959183678	147.6225191974221\\
2020.4081632653106	148.6203687490276\\
1795.9183673469433	149.53102123956802\\
1571.428571428576	150.26830369602567\\
1346.9387755102089	150.80979901116035\\
1122.4489795918416	151.14773037681482\\
897.9591836734743	151.27298625110487\\
673.4693877551069	151.16791903169906\\
448.9795918367396	150.79791044207312\\
224.48979591837224	150.10436059021978\\
} node[above,pos=0.22] {1 };
\end{axis}
\end{tikzpicture}%
