%ThrustVsSpeed_CRUISE
\begin{tikzpicture}

\begin{axis}[
width=\figurewidth,
height=\figureheight,
scaled ticks=false, tick label style={/pgf/number format/fixed},
xmin=46.0,
xmax=256.8369602209476,
xlabel={Speed (m/s)},
xmajorgrids,
ymin=0.0,
ymax=44407.39864816877,
ylabel={Total Thrust (N)},
ymajorgrids,
legend style={at={(1.03,0.5)},anchor=west,draw=black,fill=white,legend cell align=left}
]

\addplot [
color=black,
solid
]
table[row sep=crcr]{
50.0	41117.96171126737\\
52.92929292929293	40906.91753209106\\
55.858585858585855	40484.19073904886\\
58.78787878787878	40278.384636679795\\
61.71717171717171	39854.71392796297\\
64.64646464646464	39653.40866158324\\
67.57575757575756	39230.17950447236\\
70.50505050505049	39032.65252247335\\
73.43434343434342	38611.23011889726\\
76.36363636363635	38416.77127420907\\
79.29292929292927	37998.5036463625\\
82.2222222222222	37806.422588361216\\
85.15151515151513	37392.630780745065\\
88.08080808080805	37202.25621533261\\
91.01010101010098	36794.21290661772\\
93.93939393939391	36604.89576755667\\
96.86868686868684	36203.830515530324\\
99.79797979797976	36014.94767219356\\
102.72727272727269	35622.03032791795\\
105.65656565656562	35432.98643451901\\
108.58585858585855	35049.32387604436\\
111.51515151515147	34859.55247018457\\
114.4444444444444	34486.178577115046\\
117.37373737373733	34295.14449947658\\
120.30303030303025	33933.01930227631\\
123.23232323232318	33740.220900860644\\
126.16161616161611	33390.22432900289\\
129.09090909090904	33195.19433101512\\
132.02020202020196	32858.124579185074\\
134.9494949494949	32660.429052350388\\
137.87878787878782	32336.997178317986\\
140.80808080808075	32136.23857999031\\
143.73737373737367	31827.072602814857\\
146.6666666666666	31622.88637098866\\
149.59595959595953	31328.527268553644\\
152.52525252525245	31120.58235199316\\
155.45454545454538	30841.48898468345\\
158.3838383838383	30629.48816137729\\
161.31313131313124	30366.038353045547\\
164.24242424242416	30149.71262921976\\
167.1717171717171	29902.202374145785\\
170.10101010101002	29681.31280528036\\
173.03030303030295	29449.963947781744\\
175.95959595959587	29224.29702088896\\
178.8888888888888	29008.620819456526\\
181.81818181818173	28778.62758330002\\
184.74747474747466	28577.474880747508\\
187.67676767676758	28344.219565184718\\
190.6060606060605	28156.47309594144\\
193.53535353535344	27920.944251214758\\
196.46464646464636	27745.52803519044\\
199.3939393939393	27508.63349760135\\
202.32323232323222	27344.50569430131\\
205.25252525252515	27107.07942419908\\
208.18181818181807	26953.241111719726\\
211.111111111111	26716.037808888563\\
214.04040404040393	26571.528844669872\\
216.96969696969686	26335.232429482905\\
219.89898989898978	26199.135425736407\\
222.8282828282827	25964.352296911267\\
225.75757575757564	25835.7904152869\\
228.68686868686856	25603.063190162826\\
231.6161616161615	25481.20128038453\\
234.54545454545442	25251.002965845415\\
237.47474747474735	25135.044044094917\\
240.40404040404027	24907.78611029143\\
243.3333333333332	24796.971079908588\\
246.26262626262613	24573.007111330644\\
249.19191919191906	24466.612259029862\\
252.12121212121198	24246.239723892395\\
255.0505050505049	24143.57499073789\\
257.97979797979787	23927.042493475503\\
260.9090909090908	23827.448219477803\\
263.8383838383838	23614.959155316203\\
266.76767676767673	23517.802527253254\\
269.6969696969697	23309.515554380014\\
272.62626262626264	23214.187782956942\\
275.5555555555556	23010.229417381626\\
278.48484848484856	22916.142214341045\\
281.4141414141415	22716.60342272095\\
284.34343434343447	22623.184148727414\\
287.2727272727274	22428.127842317575\\
290.2020202020204	22334.815022742805\\
293.13131313131333	22144.28060260305\\
296.0606060606063	22050.521076751837\\
298.98989898989925	21864.531310682418\\
301.9191919191922	21769.773476222985\\
304.84848484848516	21588.333556436548\\
307.7777777777781	21492.02173396467\\
310.70707070707107	21315.126256530028\\
313.636363636364	21216.697000689426\\
316.565656565657	21044.335853426055\\
319.49494949494994	20943.215698110474\\
322.4242424242429	20775.388957425057\\
325.35353535353585	20671.00337789897\\
328.2828282828288	20507.745633076484\\
331.21212121212176	20399.539132622293\\
334.1414141414147	20240.955672583004\\
337.07070707070767	20128.408830412554\\
} node[above,pos=0.1] {altitude = 0 m};

\addplot [
color=black,
densely dashed
]
table[row sep=crcr]{
50.0	29608.678519615343\\
52.92929292929293	29402.91309715707\\
55.858585858585855	29204.034132474553\\
58.78787878787878	28999.301850765023\\
61.71717171717171	28802.066627696357\\
64.64646464646464	28599.201676653898\\
67.57575757575756	28403.332332052094\\
70.50505050505049	28203.14763602605\\
73.43434343434342	28008.378678548215\\
76.36363636363635	27811.662080539827\\
79.29292929292927	27617.748079360772\\
82.2222222222222	27425.105474856682\\
85.15151515151513	27231.969442884016\\
88.08080808080805	27043.196960704085\\
91.01010101010098	26851.546664506954\\
93.93939393939391	26666.338398252487\\
96.86868686868684	26476.95762569523\\
99.79797979797976	26295.016975165036\\
102.72727272727269	26108.65051570659\\
105.65656565656562	25929.691788625063\\
108.58585858585855	25747.035618713588\\
111.51515151515147	25570.78270666696\\
114.4444444444444	25392.480490258178\\
117.37373737373733	25218.671906120035\\
120.30303030303025	25045.313525990954\\
123.23232323232318	24873.701715983698\\
126.16161616161611	24705.327888220425\\
129.09090909090904	24536.170301720776\\
132.02020202020196	24372.417238763035\\
134.9494949494949	24206.328785128346\\
137.87878787878782	24046.841808486613\\
140.80808080808075	23884.38130981308\\
143.73737373737367	23728.820431405427\\
146.6666666666666	23570.488055453112\\
149.59595959595953	23418.52632203778\\
152.52525252525245	23264.760568401758\\
155.45454545454538	23116.085219353\\
158.3838383838383	22967.265571199452\\
161.31313131313124	22821.579650645082\\
164.24242424242416	22677.91202147614\\
167.1717171717171	22535.04569013108\\
170.10101010101002	22396.178543086196\\
173.03030303030295	22256.48161248626\\
175.95959595959587	22122.01467094245\\
178.8888888888888	21985.84137914376\\
181.81818181818173	21855.386714919518\\
184.74747474747466	21723.037248478144\\
187.67676767676758	21596.228830709573\\
190.6060606060605	21467.954809250437\\
193.53535353535344	21344.44193129338\\
196.46464646464636	21220.43786450735\\
199.3939393939393	21099.88649986245\\
202.32323232323222	20980.302167027035\\
205.25252525252515	20862.39596379767\\
208.18181818181807	20747.035088851935\\
211.111111111111	20631.771974119725\\
214.04040404040393	20520.220421018683\\
216.96969696969686	20407.794140836613\\
219.89898989898978	20299.657799176148\\
222.8282828282827	20190.21441719039\\
225.75757575757564	20085.115606803585\\
228.68686868686856	19978.766139594904\\
231.6161616161615	19876.345263864496\\
234.54545454545442	19773.163407373202\\
237.47474747474735	19673.07394370362\\
240.40404040404027	19573.101978351835\\
243.3333333333332	19475.01321697441\\
246.26262626262613	19378.197857096628\\
249.19191919191906	19281.85628909946\\
252.12121212121198	19187.833467387278\\
255.0505050505049	19093.281505492818\\
257.97979797979787	19001.672191256774\\
260.9090909090908	18908.95490741137\\
263.8383838383838	18819.39028286401\\
266.76767676767673	18728.52885461124\\
269.6969696969697	18640.652049178\\
272.62626262626264	18551.647180633667\\
275.5555555555556	18465.105438047798\\
278.48484848484856	18377.934301641373\\
281.4141414141415	18292.38136921051\\
284.34343434343447	18207.01062550825\\
287.2727272727274	18122.10276769917\\
290.2020202020204	18038.286604661935\\
293.13131313131333	17953.872793393497\\
296.0606060606063	17871.232783920423\\
298.98989898989925	17787.280548730072\\
301.9191919191922	17705.44293211733\\
304.84848484848516	17621.911551654906\\
307.7777777777781	17540.513672318797\\
310.70707070707107	17457.37150215262\\
313.636363636364	17376.07893044089\\
316.565656565657	17293.331885701744\\
319.49494949494994	17076.32587443984\\
322.4242424242429	16831.682915775713\\
325.35353535353585	16831.682915775713\\
328.2828282828288	16831.682915775713\\
331.21212121212176	16831.682915775713\\
334.1414141414147	16831.682915775713\\
337.07070707070767	16831.682915775713\\
} node[above,pos=0.16] {4500 m};

\addplot [
color=black,
dashdotted
]
table[row sep=crcr]{
50.0	16527.91499254851\\
52.92929292929293	16468.57416093583\\
55.858585858585855	16406.582794394526\\
58.78787878787878	16347.697778231051\\
61.71717171717171	16287.66114093215\\
64.64646464646464	16228.539152594807\\
67.57575757575756	16170.899673341992\\
70.50505050505049	16111.615794507936\\
73.43434343434342	16055.671489809863\\
76.36363636363635	15997.417902317447\\
79.29292929292927	15942.480903774102\\
82.2222222222222	15886.40735790094\\
85.15151515151513	15831.82233444148\\
88.08080808080805	15778.514230967407\\
91.01010101010098	15724.153720749053\\
93.93939393939391	15672.9718372712\\
96.86868686868684	15619.890053778805\\
99.79797979797976	15570.17333879861\\
102.72727272727269	15519.402906506486\\
105.65656565656562	15470.52857742727\\
108.58585858585855	15422.712339913272\\
111.51515151515147	15374.398013441672\\
114.4444444444444	15328.982974443914\\
117.37373737373733	15282.092054616003\\
120.30303030303025	15238.445712264247\\
123.23232323232318	15193.867057496267\\
126.16161616161611	15151.401550318793\\
129.09090909090904	15109.767470331552\\
132.02020202020196	15068.099864193824\\
134.9494949494949	15028.958966102047\\
137.87878787878782	14988.73475773375\\
140.80808080808075	14951.490933172214\\
143.73737373737367	14913.449560070887\\
146.6666666666666	14877.55364270009\\
149.59595959595953	14842.26404087452\\
152.52525252525245	14807.286003270574\\
155.45454545454538	14774.408353473247\\
158.3838383838383	14740.77680436849\\
161.31313131313124	14709.75964231325\\
164.24242424242416	14678.070919994194\\
167.1717171717171	14648.4109578907\\
170.10101010101002	14619.144520487345\\
173.03030303030295	14590.408098623191\\
175.95959595959587	14563.33430416271\\
178.8888888888888	14535.757039655913\\
181.81818181818173	14510.377494856233\\
184.74747474747466	14484.428223787263\\
187.67676767676758	14460.290903107372\\
190.6060606060605	14436.35425887713\\
193.53535353535344	14413.053347351375\\
196.46464646464636	14391.001460027643\\
199.3939393939393	14368.615147843724\\
202.32323232323222	14348.007873741444\\
205.25252525252515	14326.899718989771\\
208.18181818181807	14307.338120875866\\
211.111111111111	14287.807588390302\\
214.04040404040393	14268.932165016093\\
216.96969696969686	14250.940210313907\\
219.89898989898978	14232.708633878845\\
222.8282828282827	14215.872857291215\\
225.75757575757564	14198.568626342052\\
228.68686868686856	14182.54209035274\\
231.6161616161615	14166.40268760467\\
234.54545454545442	14150.8680353931\\
237.47474747474735	14135.91451015092\\
240.40404040404027	14120.757385345605\\
243.3333333333332	14106.66997968215\\
246.26262626262613	14092.109525866908\\
249.19191919191906	14078.584258143665\\
252.12121212121198	14064.816363545478\\
255.0505050505049	14051.571335938439\\
257.97979797979787	14038.66120227732\\
260.9090909090908	14025.539536073768\\
263.8383838383838	14013.223579284477\\
266.76767676767673	14000.393057996132\\
269.6969696969697	13988.40015757541\\
272.62626262626264	13976.035372899878\\
275.5555555555556	13964.107943513847\\
278.48484848484856	13952.308430547144\\
281.4141414141415	13940.260744321691\\
284.34343434343447	13928.813170668605\\
287.2727272727274	13916.778803322139\\
290.2020202020204	13905.439417023917\\
293.13131313131333	13893.59600765765\\
296.0606060606063	13882.13571000622\\
298.98989898989925	13867.303946276756\\
301.9191919191922	13614.199499737268\\
304.84848484848516	13614.199499737268\\
307.7777777777781	13614.199499737268\\
310.70707070707107	13614.199499737268\\
313.636363636364	13614.199499737268\\
316.565656565657	13614.199499737268\\
319.49494949494994	13614.199499737268\\
322.4242424242429	13614.199499737268\\
325.35353535353585	13614.199499737268\\
328.2828282828288	13614.199499737268\\
331.21212121212176	13614.199499737268\\
334.1414141414147	13614.199499737268\\
337.07070707070767	13614.199499737268\\
} node[above,pos=0.22] {9000 m};
\end{axis}
\end{tikzpicture}%
