%TotalThrustAndDragVsSpeed_Phi100_CRUISE
\begin{tikzpicture}

\begin{axis}[
width=\figurewidth,
height=\figureheight,
scaled ticks=false, tick label style={/pgf/number format/fixed},
xmin=46.0,
xmax=256.8369602209476,
xlabel={Speed (m/s)},
xmajorgrids,
ymin=0.0,
ymax=124000.0,
ylabel={Total Thrust, Drag (N)},
ymajorgrids,
legend style={at={(1.03,0.5)},anchor=west,draw=black,fill=white,legend cell align=left}
]

\addplot [
color=black,
solid
]
table[row sep=crcr]{
50.0	37801.51772124587\\
52.92929292929293	34475.03276123814\\
55.858585858585855	31740.38743685851\\
58.78787878787878	29486.948331804062\\
61.71717171717171	27629.697205062304\\
64.64646464646464	26102.430183636818\\
67.57575757575756	24852.97393574491\\
70.50505050505049	23839.763049938352\\
73.43434343434342	23029.35331044205\\
76.36363636363635	22394.589422212463\\
79.29292929292927	21913.237497150374\\
82.2222222222222	21566.9522969692\\
85.15151515151513	21340.488753299276\\
88.08080808080805	21221.09389617909\\
91.01010101010098	21198.0335125969\\
93.93939393939391	21262.220467774532\\
96.86868686868684	21405.920479777582\\
99.79797979797976	21622.5174358585\\
102.72727272727269	21906.324867668314\\
105.65656565656562	22252.433493783457\\
108.58585858585855	22656.587153892557\\
111.51515151515147	23115.081248948674\\
114.4444444444444	23624.67913949231\\
117.37373737373733	24182.54296267728\\
120.30303030303025	24786.17609443754\\
123.23232323232318	25433.37506932175\\
126.16161616161611	26122.189222164612\\
129.09090909090904	26850.886666123795\\
132.02020202020196	27617.925495123596\\
134.9494949494949	28421.929313553937\\
137.87878787878782	29261.66636574417\\
140.80808080808075	30136.031672483405\\
143.73737373737367	31044.03168943755\\
146.6666666666666	31984.771088626774\\
149.59595959595953	32957.441333709496\\
152.52525252525245	33961.310776169856\\
155.45454545454538	34995.71604534091\\
158.3838383838383	36060.05454263427\\
161.31313131313124	37153.77788105062\\
164.24242424242416	38276.38613632278\\
167.1717171717171	39427.42279693152\\
170.10101010101002	40606.4703175564\\
173.03030303030295	41813.14619494024\\
175.95959595959587	43047.0994971811\\
178.8888888888888	44308.00778754823\\
181.81818181818173	45595.57439238865\\
184.74747474747466	46909.52596983007\\
187.67676767676758	48249.61034201923\\
190.6060606060605	49615.59455874766\\
193.53535353535344	51007.26316466285\\
196.46464646464636	52424.41664596497\\
199.3939393939393	53866.87003565206\\
202.32323232323222	55334.45165908424\\
205.25252525252515	56827.0020039628\\
208.18181818181807	58344.37270081891\\
211.111111111111	59886.42560183118\\
214.04040404040393	61453.031947281444\\
216.96969696969686	63044.0716102477\\
219.89898989898978	64659.43241125316\\
222.8282828282827	66299.0094955632\\
225.75757575757564	67962.70476666969\\
228.68686868686856	69650.42637024308\\
231.6161616161615	71362.08822347774\\
234.54545454545442	73097.6095853247\\
237.47474747474735	74856.91466360177\\
240.40404040404027	76640.09321661758\\
243.3333333333332	78450.36839395229\\
246.26262626262613	80298.76848222327\\
249.19191919191906	82205.7312699624\\
252.12121212121198	84202.20937526097\\
255.0505050505049	86330.8144854937\\
257.97979797979787	88647.000673123\\
260.9090909090908	91220.28676740637\\
263.8383838383838	94135.51776384312\\
266.76767676767673	97494.16525499137\\
269.6969696969697	101415.66686788903\\
272.62626262626264	106038.80469474339\\
275.5555555555556	111523.12270483536\\
278.48484848484856	118050.38312673081\\
281.4141414141415	125826.0617909198\\
284.34343434343447	135080.88242392894\\
287.2727272727274	146072.38988577775\\
290.2020202020204	159086.56234340018\\
293.13131313131333	174439.4623733184\\
296.0606060606063	192478.92698746806\\
298.98989898989925	213586.29657660928\\
301.9191919191922	238178.18276626317\\
304.84848484848516	266708.2751805459\\
307.7777777777781	299669.18710968463\\
310.70707070707107	337594.3400773603\\
313.636363636364	381059.8873043496\\
316.565656565657	430686.6760652424\\
319.49494949494994	487142.24893528456\\
322.4242424242429	551142.8839246344\\
325.35353535353585	623455.673497549\\
328.2828282828288	704900.6424742338\\
331.21212121212176	796352.9048132446\\
334.1414141414147	898744.8592725424\\
337.07070707070767	1013068.423947414\\
} node[above,pos=0.1] {altitude = 0 m};

\addplot [
color=black,
densely dashed
]
table[row sep=crcr]{
50.0	56531.42499628573\\
52.92929292929293	50917.861011329915\\
55.858585858585855	46216.30780181151\\
58.78787878787878	42252.35192147621\\
61.71717171717171	38891.96221676311\\
64.64646464646464	36030.76836240734\\
67.57575757575756	33586.5191643044\\
70.50505050505049	31493.686801856005\\
73.43434343434342	29699.546509566055\\
76.36363636363635	28161.28799782341\\
79.29292929292927	26843.859569079494\\
82.2222222222222	25718.339977486125\\
85.15151515151513	24760.69539129887\\
88.08080808080805	23950.82076888299\\
91.01010101010098	23271.793636479924\\
93.93939393939391	22709.288137163214\\
96.86868686868684	22251.111184869376\\
99.79797979797976	21886.832485898092\\
102.72727272727269	21607.487329812833\\
105.65656565656562	21405.336240419783\\
108.58585858585855	21273.669386164205\\
111.51515151515147	21206.64647115397\\
114.4444444444444	21199.164937217425\\
117.37373737373733	21246.75089702882\\
120.30303030303025	21345.46842578435\\
123.23232323232318	21491.84376287971\\
126.16161616161611	21682.801687054114\\
129.09090909090904	21915.611880806875\\
132.02020202020196	22187.843531084847\\
134.9494949494949	22497.326751882632\\
137.87878787878782	22842.11968188346\\
140.80808080808075	23220.480322705214\\
143.73737373737367	23630.84235291348\\
146.6666666666666	24071.79428903691\\
149.59595959595953	24542.061474516307\\
152.52525252525245	25040.490466356223\\
155.45454545454538	25566.035461506966\\
158.3838383838383	26117.746464026815\\
161.31313131313124	26694.75894247825\\
164.24242424242416	27296.284766862078\\
167.1717171717171	27921.60424732338\\
170.10101010101002	28570.059124172305\\
173.03030303030295	29241.04638148909\\
175.95959595959587	29934.012775557134\\
178.8888888888888	30648.4499852625\\
181.81818181818173	31383.89030495207\\
184.74747474747466	32139.902811496653\\
187.67676767676758	32916.08994681723\\
190.6060606060605	33712.08446519344\\
193.53535353535344	34527.546701524094\\
196.46464646464636	35362.16212254646\\
199.3939393939393	36215.6391280068\\
202.32323232323222	37087.70707304417\\
205.25252525252515	37978.11448671364\\
208.18181818181807	38886.62746472803\\
211.111111111111	39813.02821721497\\
214.04040404040393	40757.113754635306\\
216.96969696969686	41718.69469704263\\
219.89898989898978	42697.59419362823\\
222.8282828282827	43693.64695976997\\
225.75757575757564	44706.986352711974\\
228.68686868686856	45740.55206826858\\
231.6161616161615	46802.55618384613\\
234.54545454545442	47907.37241699463\\
237.47474747474735	49076.334838563125\\
240.40404040404027	50338.567688184696\\
243.3333333333332	51731.84623716184\\
246.26262626262613	53303.48864952269\\
249.19191919191906	55111.278797080384\\
252.12121212121198	57224.41998882487\\
255.0505050505049	59724.51957897915\\
257.97979797979787	62706.60442161683\\
260.9090909090908	66280.16714291775\\
263.8383838383838	70570.24320497601\\
266.76767676767673	75718.51873761295\\
269.6969696969697	81884.4691169148\\
272.62626262626264	89246.52827124999\\
275.5555555555556	98003.28869734098\\
278.48484848484856	108374.73217060156\\
281.4141414141415	120603.4911354197\\
284.34343434343447	134956.1407623856\\
287.2727272727274	151724.52166065527\\
290.2020202020204	171227.09323470853\\
293.13131313131333	193810.31767572515\\
296.0606060606063	219850.07457868164\\
298.98989898989925	249753.10617704398\\
301.9191919191922	283958.4931876594\\
304.84848484848516	322939.16125908354\\
307.7777777777781	367203.4180171662\\
310.70707070707107	417296.5207022424\\
313.636363636364	473802.27439277474\\
316.565656565657	537344.6608106925\\
319.49494949494994	608589.4977041017\\
322.4242424242429	688246.1288033954\\
325.35353535353585	777069.1443470942\\
328.2828282828288	875860.1321740729\\
331.21212121212176	985469.4593791119\\
334.1414141414147	1106798.0845288914\\
337.07070707070767	1240799.4004358824\\
} node[above,pos=0.16] {4500 m};

\addplot [
color=black,
dashdotted
]
table[row sep=crcr]{
50.0	92325.40927245517\\
52.92929292929293	82303.39627589408\\
55.858585858585855	74154.84987590791\\
58.78787878787878	67265.20466683949\\
61.71717171717171	61365.268935563334\\
64.64646464646464	56280.79045677831\\
67.57575757575756	51874.93038128976\\
70.50505050505049	48038.672035740994\\
73.43434343434342	44684.298806250634\\
76.36363636363635	41740.588495647586\\
79.29292929292927	39149.22664409831\\
82.2222222222222	36862.097840729766\\
85.15151515151513	34839.21771919387\\
88.08080808080805	33047.13812362781\\
91.01010101010098	31457.705641064666\\
93.93939393939391	30047.086772223585\\
96.86868686868684	28794.99624485743\\
99.79797979797976	27684.08149159923\\
102.72727272727269	26699.428192081366\\
105.65656565656562	25828.16041146466\\
108.58585858585855	25059.115203870537\\
111.51515151515147	24382.576243870066\\
114.4444444444444	23790.054558193537\\
117.37373737373733	23274.107074436375\\
120.30303030303025	22828.185712336228\\
123.23232323232318	22446.511280373223\\
126.16161616161611	22123.96762500179\\
129.09090909090904	21856.012398736293\\
132.02020202020196	21638.601530673932\\
134.9494949494949	21468.1250464296\\
137.87878787878782	21341.352329466048\\
140.80808080808075	21255.385269226885\\
143.73737373737367	21207.61802363427\\
146.6666666666666	21195.702349893905\\
149.59595959595953	21217.517640048936\\
152.52525252525245	21271.14494551962\\
155.45454545454538	21354.84439508146\\
158.3838383838383	21467.035508927194\\
161.31313131313124	21606.27999198657\\
164.24242424242416	21771.266655974978\\
167.1717171717171	21960.798174426865\\
170.10101010101002	22173.779420403236\\
173.03030303030295	22409.207174371437\\
175.95959595959587	22666.161021323194\\
178.8888888888888	22943.7952826394\\
181.81818181818173	23241.33185042711\\
184.74747474747466	23558.05381077726\\
187.67676767676758	23893.299758215897\\
190.6060606060605	24246.458717032674\\
193.53535353535344	24616.96559656764\\
196.46464646464636	25004.297117248072\\
199.3939393939393	25407.968152461755\\
202.32323232323222	25827.528438456113\\
205.25252525252515	26262.578241372055\\
208.18181818181807	26713.428605833713\\
211.111111111111	27182.655651355617\\
214.04040404040393	27675.846869326895\\
216.96969696969686	28202.10614284728\\
219.89898989898978	28774.582614951683\\
222.8282828282827	29411.024352160817\\
225.75757575757564	30134.356660022204\\
228.68686868686856	30973.28492213052\\
231.6161616161615	31962.92184731783\\
234.54545454545442	33145.43902146684\\
237.47474747474735	34570.74267088771\\
240.40404040404027	36297.1735535563\\
243.3333333333332	38392.23090286598\\
246.26262626262613	40933.320356010234\\
249.19191919191906	44008.525805788064\\
252.12121212121198	47717.40512059713\\
255.0505050505049	52171.80968272945\\
257.97979797979787	57496.72769987838\\
260.9090909090908	63831.15124906617\\
263.8383838383838	71328.96701606293\\
266.76767676767673	80159.8706968348\\
269.6969696969697	90510.30503067923\\
272.62626262626264	102584.42143750885\\
275.5555555555556	116605.06523427778\\
278.48484848484856	132814.7844078158\\
281.4141414141415	151476.8619233945\\
284.34343434343447	172876.3715502034\\
287.2727272727274	197321.2571865884\\
290.2020202020204	225143.4356694204\\
293.13131313131333	256699.92305333432\\
296.0606060606063	292373.98434681573\\
298.98989898989925	332576.3066932428\\
301.9191919191922	377746.1959860033\\
304.84848484848516	428352.7969077408\\
307.7777777777781	484896.33638462174\\
310.70707070707107	547909.3904472702\\
313.636363636364	617958.1744907291\\
316.565656565657	695643.8569264251\\
319.49494949494994	781603.8962196936\\
322.4242424242429	876513.4013069533\\
325.35353535353585	981086.5153870807\\
328.2828282828288	1096077.823081996\\
331.21212121212176	1222283.7809618532\\
334.1414141414147	1360544.1714305836\\
337.07070707070767	1511743.5799679158\\
} node[above,pos=0.22] {9000 m};

\addplot [
color=black,
dashed
]
table[row sep=crcr]{
50.0	41117.96171126737\\
52.92929292929293	40906.91753209106\\
55.858585858585855	40484.19073904886\\
58.78787878787878	40278.384636679795\\
61.71717171717171	39854.71392796297\\
64.64646464646464	39653.40866158324\\
67.57575757575756	39230.17950447236\\
70.50505050505049	39032.65252247335\\
73.43434343434342	38611.23011889726\\
76.36363636363635	38416.77127420907\\
79.29292929292927	37998.5036463625\\
82.2222222222222	37806.422588361216\\
85.15151515151513	37392.630780745065\\
88.08080808080805	37202.25621533261\\
91.01010101010098	36794.21290661772\\
93.93939393939391	36604.89576755667\\
96.86868686868684	36203.830515530324\\
99.79797979797976	36014.94767219356\\
102.72727272727269	35622.03032791795\\
105.65656565656562	35432.98643451901\\
108.58585858585855	35049.32387604436\\
111.51515151515147	34859.55247018457\\
114.4444444444444	34486.178577115046\\
117.37373737373733	34295.14449947658\\
120.30303030303025	33933.01930227631\\
123.23232323232318	33740.220900860644\\
126.16161616161611	33390.22432900289\\
129.09090909090904	33195.19433101512\\
132.02020202020196	32858.124579185074\\
134.9494949494949	32660.429052350388\\
137.87878787878782	32336.997178317986\\
140.80808080808075	32136.23857999031\\
143.73737373737367	31827.072602814857\\
146.6666666666666	31622.88637098866\\
149.59595959595953	31328.527268553644\\
152.52525252525245	31120.58235199316\\
155.45454545454538	30841.48898468345\\
158.3838383838383	30629.48816137729\\
161.31313131313124	30366.038353045547\\
164.24242424242416	30149.71262921976\\
167.1717171717171	29902.202374145785\\
170.10101010101002	29681.31280528036\\
173.03030303030295	29449.963947781744\\
175.95959595959587	29224.29702088896\\
178.8888888888888	29008.620819456526\\
181.81818181818173	28778.62758330002\\
184.74747474747466	28577.474880747508\\
187.67676767676758	28344.219565184718\\
190.6060606060605	28156.47309594144\\
193.53535353535344	27920.944251214758\\
196.46464646464636	27745.52803519044\\
199.3939393939393	27508.63349760135\\
202.32323232323222	27344.50569430131\\
205.25252525252515	27107.07942419908\\
208.18181818181807	26953.241111719726\\
211.111111111111	26716.037808888563\\
214.04040404040393	26571.528844669872\\
216.96969696969686	26335.232429482905\\
219.89898989898978	26199.135425736407\\
222.8282828282827	25964.352296911267\\
225.75757575757564	25835.7904152869\\
228.68686868686856	25603.063190162826\\
231.6161616161615	25481.20128038453\\
234.54545454545442	25251.002965845415\\
237.47474747474735	25135.044044094917\\
240.40404040404027	24907.78611029143\\
243.3333333333332	24796.971079908588\\
246.26262626262613	24573.007111330644\\
249.19191919191906	24466.612259029862\\
252.12121212121198	24246.239723892395\\
255.0505050505049	24143.57499073789\\
257.97979797979787	23927.042493475503\\
260.9090909090908	23827.448219477803\\
263.8383838383838	23614.959155316203\\
266.76767676767673	23517.802527253254\\
269.6969696969697	23309.515554380014\\
272.62626262626264	23214.187782956942\\
275.5555555555556	23010.229417381626\\
278.48484848484856	22916.142214341045\\
281.4141414141415	22716.60342272095\\
284.34343434343447	22623.184148727414\\
287.2727272727274	22428.127842317575\\
290.2020202020204	22334.815022742805\\
293.13131313131333	22144.28060260305\\
296.0606060606063	22050.521076751837\\
298.98989898989925	21864.531310682418\\
301.9191919191922	21769.773476222985\\
304.84848484848516	21588.333556436548\\
307.7777777777781	21492.02173396467\\
310.70707070707107	21315.126256530028\\
313.636363636364	21216.697000689426\\
316.565656565657	21044.335853426055\\
319.49494949494994	20943.215698110474\\
322.4242424242429	20775.388957425057\\
325.35353535353585	20671.00337789897\\
328.2828282828288	20507.745633076484\\
331.21212121212176	20399.539132622293\\
334.1414141414147	20240.955672583004\\
337.07070707070767	20128.408830412554\\
} node[above,pos=0.28] {0 m};

\addplot [
color=black,
dotted
]
table[row sep=crcr]{
50.0	29608.678519615343\\
52.92929292929293	29402.91309715707\\
55.858585858585855	29204.034132474553\\
58.78787878787878	28999.301850765023\\
61.71717171717171	28802.066627696357\\
64.64646464646464	28599.201676653898\\
67.57575757575756	28403.332332052094\\
70.50505050505049	28203.14763602605\\
73.43434343434342	28008.378678548215\\
76.36363636363635	27811.662080539827\\
79.29292929292927	27617.748079360772\\
82.2222222222222	27425.105474856682\\
85.15151515151513	27231.969442884016\\
88.08080808080805	27043.196960704085\\
91.01010101010098	26851.546664506954\\
93.93939393939391	26666.338398252487\\
96.86868686868684	26476.95762569523\\
99.79797979797976	26295.016975165036\\
102.72727272727269	26108.65051570659\\
105.65656565656562	25929.691788625063\\
108.58585858585855	25747.035618713588\\
111.51515151515147	25570.78270666696\\
114.4444444444444	25392.480490258178\\
117.37373737373733	25218.671906120035\\
120.30303030303025	25045.313525990954\\
123.23232323232318	24873.701715983698\\
126.16161616161611	24705.327888220425\\
129.09090909090904	24536.170301720776\\
132.02020202020196	24372.417238763035\\
134.9494949494949	24206.328785128346\\
137.87878787878782	24046.841808486613\\
140.80808080808075	23884.38130981308\\
143.73737373737367	23728.820431405427\\
146.6666666666666	23570.488055453112\\
149.59595959595953	23418.52632203778\\
152.52525252525245	23264.760568401758\\
155.45454545454538	23116.085219353\\
158.3838383838383	22967.265571199452\\
161.31313131313124	22821.579650645082\\
164.24242424242416	22677.91202147614\\
167.1717171717171	22535.04569013108\\
170.10101010101002	22396.178543086196\\
173.03030303030295	22256.48161248626\\
175.95959595959587	22122.01467094245\\
178.8888888888888	21985.84137914376\\
181.81818181818173	21855.386714919518\\
184.74747474747466	21723.037248478144\\
187.67676767676758	21596.228830709573\\
190.6060606060605	21467.954809250437\\
193.53535353535344	21344.44193129338\\
196.46464646464636	21220.43786450735\\
199.3939393939393	21099.88649986245\\
202.32323232323222	20980.302167027035\\
205.25252525252515	20862.39596379767\\
208.18181818181807	20747.035088851935\\
211.111111111111	20631.771974119725\\
214.04040404040393	20520.220421018683\\
216.96969696969686	20407.794140836613\\
219.89898989898978	20299.657799176148\\
222.8282828282827	20190.21441719039\\
225.75757575757564	20085.115606803585\\
228.68686868686856	19978.766139594904\\
231.6161616161615	19876.345263864496\\
234.54545454545442	19773.163407373202\\
237.47474747474735	19673.07394370362\\
240.40404040404027	19573.101978351835\\
243.3333333333332	19475.01321697441\\
246.26262626262613	19378.197857096628\\
249.19191919191906	19281.85628909946\\
252.12121212121198	19187.833467387278\\
255.0505050505049	19093.281505492818\\
257.97979797979787	19001.672191256774\\
260.9090909090908	18908.95490741137\\
263.8383838383838	18819.39028286401\\
266.76767676767673	18728.52885461124\\
269.6969696969697	18640.652049178\\
272.62626262626264	18551.647180633667\\
275.5555555555556	18465.105438047798\\
278.48484848484856	18377.934301641373\\
281.4141414141415	18292.38136921051\\
284.34343434343447	18207.01062550825\\
287.2727272727274	18122.10276769917\\
290.2020202020204	18038.286604661935\\
293.13131313131333	17953.872793393497\\
296.0606060606063	17871.232783920423\\
298.98989898989925	17787.280548730072\\
301.9191919191922	17705.44293211733\\
304.84848484848516	17621.911551654906\\
307.7777777777781	17540.513672318797\\
310.70707070707107	17457.37150215262\\
313.636363636364	17376.07893044089\\
316.565656565657	17293.331885701744\\
319.49494949494994	17076.32587443984\\
322.4242424242429	16831.682915775713\\
325.35353535353585	16831.682915775713\\
328.2828282828288	16831.682915775713\\
331.21212121212176	16831.682915775713\\
334.1414141414147	16831.682915775713\\
337.07070707070767	16831.682915775713\\
} node[above,pos=0.34] {4500 m};

\addplot [
color=black,
loosely dashed
]
table[row sep=crcr]{
50.0	16527.91499254851\\
52.92929292929293	16468.57416093583\\
55.858585858585855	16406.582794394526\\
58.78787878787878	16347.697778231051\\
61.71717171717171	16287.66114093215\\
64.64646464646464	16228.539152594807\\
67.57575757575756	16170.899673341992\\
70.50505050505049	16111.615794507936\\
73.43434343434342	16055.671489809863\\
76.36363636363635	15997.417902317447\\
79.29292929292927	15942.480903774102\\
82.2222222222222	15886.40735790094\\
85.15151515151513	15831.82233444148\\
88.08080808080805	15778.514230967407\\
91.01010101010098	15724.153720749053\\
93.93939393939391	15672.9718372712\\
96.86868686868684	15619.890053778805\\
99.79797979797976	15570.17333879861\\
102.72727272727269	15519.402906506486\\
105.65656565656562	15470.52857742727\\
108.58585858585855	15422.712339913272\\
111.51515151515147	15374.398013441672\\
114.4444444444444	15328.982974443914\\
117.37373737373733	15282.092054616003\\
120.30303030303025	15238.445712264247\\
123.23232323232318	15193.867057496267\\
126.16161616161611	15151.401550318793\\
129.09090909090904	15109.767470331552\\
132.02020202020196	15068.099864193824\\
134.9494949494949	15028.958966102047\\
137.87878787878782	14988.73475773375\\
140.80808080808075	14951.490933172214\\
143.73737373737367	14913.449560070887\\
146.6666666666666	14877.55364270009\\
149.59595959595953	14842.26404087452\\
152.52525252525245	14807.286003270574\\
155.45454545454538	14774.408353473247\\
158.3838383838383	14740.77680436849\\
161.31313131313124	14709.75964231325\\
164.24242424242416	14678.070919994194\\
167.1717171717171	14648.4109578907\\
170.10101010101002	14619.144520487345\\
173.03030303030295	14590.408098623191\\
175.95959595959587	14563.33430416271\\
178.8888888888888	14535.757039655913\\
181.81818181818173	14510.377494856233\\
184.74747474747466	14484.428223787263\\
187.67676767676758	14460.290903107372\\
190.6060606060605	14436.35425887713\\
193.53535353535344	14413.053347351375\\
196.46464646464636	14391.001460027643\\
199.3939393939393	14368.615147843724\\
202.32323232323222	14348.007873741444\\
205.25252525252515	14326.899718989771\\
208.18181818181807	14307.338120875866\\
211.111111111111	14287.807588390302\\
214.04040404040393	14268.932165016093\\
216.96969696969686	14250.940210313907\\
219.89898989898978	14232.708633878845\\
222.8282828282827	14215.872857291215\\
225.75757575757564	14198.568626342052\\
228.68686868686856	14182.54209035274\\
231.6161616161615	14166.40268760467\\
234.54545454545442	14150.8680353931\\
237.47474747474735	14135.91451015092\\
240.40404040404027	14120.757385345605\\
243.3333333333332	14106.66997968215\\
246.26262626262613	14092.109525866908\\
249.19191919191906	14078.584258143665\\
252.12121212121198	14064.816363545478\\
255.0505050505049	14051.571335938439\\
257.97979797979787	14038.66120227732\\
260.9090909090908	14025.539536073768\\
263.8383838383838	14013.223579284477\\
266.76767676767673	14000.393057996132\\
269.6969696969697	13988.40015757541\\
272.62626262626264	13976.035372899878\\
275.5555555555556	13964.107943513847\\
278.48484848484856	13952.308430547144\\
281.4141414141415	13940.260744321691\\
284.34343434343447	13928.813170668605\\
287.2727272727274	13916.778803322139\\
290.2020202020204	13905.439417023917\\
293.13131313131333	13893.59600765765\\
296.0606060606063	13882.13571000622\\
298.98989898989925	13867.303946276756\\
301.9191919191922	13614.199499737268\\
304.84848484848516	13614.199499737268\\
307.7777777777781	13614.199499737268\\
310.70707070707107	13614.199499737268\\
313.636363636364	13614.199499737268\\
316.565656565657	13614.199499737268\\
319.49494949494994	13614.199499737268\\
322.4242424242429	13614.199499737268\\
325.35353535353585	13614.199499737268\\
328.2828282828288	13614.199499737268\\
331.21212121212176	13614.199499737268\\
334.1414141414147	13614.199499737268\\
337.07070707070767	13614.199499737268\\
} node[above,pos=0.4] {9000 m};
\end{axis}
\end{tikzpicture}%
