\relax 
\providecommand \oddpage@label [2]{}
\select@language{english}
\@writefile{toc}{\select@language{english}}
\@writefile{lof}{\select@language{english}}
\@writefile{lot}{\select@language{english}}
\@writefile{toc}{\contentsline {section}{\numberline {1}Development environment}{1}}
\@writefile{tdo}{\contentsline {todo}{\color@box {}{orange!20}{\leavevmode {\color {orange!20}o}}\ \sffamily  1.~\textbf  {[\uppercase {ADM}]:}~Add a general description of the IDE setup for \unhbox \voidb@x \hbox {\sffamily  ADOpT}.}{1}}
\pgfsyspdfmark {pgfid1}{19562753}{42305994}
\@writefile{tdo}{\contentsline {todo}{\color@box {}{orange!20}{\leavevmode {\color {orange!20}o}}\ \sffamily  2.~\textbf  {[\uppercase {ADM}]:}~Add list of variables.}{1}}
\pgfsyspdfmark {pgfid2}{19562753}{41344016}
\@writefile{toc}{\contentsline {section}{\numberline {2}Depedencies}{1}}
\@writefile{toc}{\contentsline {subsection}{\numberline {2.1}Eclipse plugins}{1}}
\@writefile{tdo}{\contentsline {todo}{\color@box {}{orange!20}{\leavevmode {\color {orange!20}o}}\ \sffamily  3.~\textbf  {[\uppercase {ADM}]:}~Add list of Eclipse plugins and related URLs.}{1}}
\pgfsyspdfmark {pgfid3}{19562753}{32057991}
\@writefile{toc}{\contentsline {subsection}{\numberline {2.2}External libraries}{1}}
\@writefile{tdo}{\contentsline {todo}{\color@box {}{orange!20}{\leavevmode {\color {orange!20}o}}\ \sffamily  4.~\textbf  {[\uppercase {ADM}]:}~Add list of libraries.}{1}}
\pgfsyspdfmark {pgfid4}{19562753}{23395867}
