%RateOfClimb_Phi100_0.87MZFW
\begin{tikzpicture}

\begin{axis}[
width=\figurewidth,
height=\figureheight,
scaled ticks=false, tick label style={/pgf/number format/fixed},
xmin=46.0,
xmax=256.8369602209476,
xlabel={Speed (m/s)},
xmajorgrids,
ymin=0.0,
ymax=20.70356172541699,
ylabel={Rate of Climb (m/s)},
ymajorgrids,
legend style={at={(1.03,0.5)},anchor=west,draw=black,fill=white,legend cell align=left}
]

\addplot [
color=black,
solid
]
table[row sep=crcr]{
50.0	7.843028688277746\\
52.92929292929293	8.80929609734229\\
55.858585858585855	9.649394021185323\\
58.78787878787878	10.51669838465568\\
61.71717171717171	11.255296709451866\\
64.64646464646464	12.037484236549524\\
67.57575757575756	12.685927359818885\\
70.50505050505049	13.391594213996521\\
73.43434343434342	13.95731747375782\\
76.36363636363635	14.59175979057252\\
79.29292929292927	15.079748710491305\\
82.2222222222222	15.646094758373746\\
85.15151515151513	16.05975979408413\\
88.08080808080805	16.55966144491479\\
91.01010101010098	16.901366174889386\\
93.93939393939391	17.335437449908174\\
96.86868686868684	17.606844432330842\\
99.79797979797976	17.974951518796786\\
102.72727272727269	18.17724096231466\\
105.65656565656562	18.478696302300165\\
108.58585858585855	18.61270716330101\\
111.51515151515147	18.846404560844324\\
114.4444444444444	18.912730796778416\\
117.37373737373733	19.07724529862215\\
120.30303030303025	19.076307141387044\\
123.23232323232318	19.169964560571284\\
126.16161616161611	19.102041910564903\\
129.09090909090904	19.122973960189317\\
132.02020202020196	18.988241902929246\\
134.9494949494949	18.934423222779458\\
137.87878787878782	18.732960235698776\\
140.80808080808075	18.60224440784454\\
143.73737373737367	18.33405274040415\\
146.6666666666666	18.124190978625457\\
149.59595959595953	17.78919231261687\\
152.52525252525245	17.49785576138637\\
155.45454545454538	17.09590174882515\\
158.3838383838383	16.720696974347884\\
161.31313131313124	16.25156701466652\\
164.24242424242416	15.79004303239873\\
167.1717171717171	15.253439326711563\\
170.10101010101002	14.7031028425643\\
173.03030303030295	14.098656652494318\\
175.95959595959587	13.456971027042753\\
178.8888888888888	12.78348390512475\\
181.81818181818173	12.048629272330087\\
184.74747474747466	11.304025119706285\\
187.67676767676758	10.474953362845262\\
190.6060606060605	9.657045542511524\\
193.53535353535344	8.732708481877859\\
196.46464646464636	7.839208401289496\\
199.3939393939393	6.818554820865223\\
202.32323232323222	5.84707983574124\\
205.25252525252515	4.729043567988454\\
208.18181818181807	3.6771267211683782\\
211.111111111111	2.4606219178812094\\
214.04040404040393	1.3257207834786051\\
216.96969696969686	0.0096327377907685\\
219.89898989898978	-1.210865533458086\\
222.8282828282827	-2.6276925299491403\\
225.75757575757564	-3.936463978606508\\
228.68686868686856	-5.455220019303227\\
231.6161616161615	-6.854997854424975\\
234.54545454545442	-8.476922455918485\\
237.47474747474735	-9.970495123696043\\
240.40404040404027	-11.697089808273756\\
243.3333333333332	-13.290865789168581\\
246.26262626262613	-15.139479825513874\\
249.19191919191906	-16.875907312235512\\
252.12121212121198	-18.918713487982362\\
255.0505050505049	-20.908196413420548\\
257.97979797979787	-23.296351852477564\\
260.9090909090908	-25.73980194713727\\
263.8383838383838	-28.727255028988736\\
266.76767676767673	-31.941434757727617\\
269.6969696969697	-35.91183507619412\\
272.62626262626264	-40.35790080219041\\
275.5555555555556	-45.85480906855714\\
278.48484848484856	-52.17020632872096\\
281.4141414141415	-59.93069980604514\\
284.34343434343447	-68.9645675158309\\
287.2727272727274	-79.95646182827436\\
290.2020202020204	-92.80871256987952\\
293.13131313131333	-108.27152157277821\\
296.0606060606063	-126.33573997341941\\
298.98989898989925	-147.8255309957029\\
301.9191919191922	-172.83585942543817\\
304.84848484848516	-202.27417905011924\\
307.7777777777781	-236.35635052994192\\
310.70707070707107	-276.0833771816146\\
313.636363636364	-321.81003393505125\\
316.565656565657	-374.64208209119295\\
319.49494949494994	-435.0925706519044\\
322.4242424242429	-504.3841656514067\\
325.35353535353585	-583.2089200903105\\
328.2828282828288	-672.9195213499509\\
331.21212121212176	-774.4092386375434\\
334.1414141414147	-889.1748551511224\\
337.07070707070767	-1018.3345937391898\\
} node[above,pos=0.1] {altitude = 0 m};

\addplot [
color=black,
densely dashed
]
table[row sep=crcr]{
50.0	0.5790738157364163\\
52.92929292929293	1.5122493411571072\\
55.858585858585855	2.38238111587296\\
58.78787878787878	3.1926967132301045\\
61.71717171717171	3.953609854360048\\
64.64646464646464	4.665207575767949\\
67.57575757575756	5.336085988136196\\
70.50505050505049	5.965025997321432\\
73.43434343434342	6.558618043605747\\
76.36363636363635	7.115941632181439\\
79.29292929292927	7.6408863355553365\\
82.2222222222222	8.134316379892597\\
85.15151515151513	8.596604035799139\\
88.08080808080805	9.031278077269219\\
91.01010101010098	9.435453641292337\\
93.93939393939391	9.814886757974492\\
96.86868686868684	10.16431653340924\\
99.79797979797976	10.490901470134029\\
102.72727272727269	10.7880821089904\\
105.65656565656562	11.063392397374033\\
108.58585858585855	11.310189959848854\\
111.51515151515147	11.535188282834994\\
114.4444444444444	11.73300315945018\\
117.37373737373733	11.908188009180796\\
120.30303030303025	12.058066471268567\\
123.23232323232318	12.183582345866526\\
126.16161616161611	12.285925642610362\\
129.09090909090904	12.362009957942005\\
132.02020202020196	12.416666165185728\\
134.9494949494949	12.443672793487034\\
137.87878787878782	12.450279943750674\\
140.80808080808075	12.428420067755807\\
143.73737373737367	12.386440427024885\\
146.6666666666666	12.315806819777611\\
149.59595959595953	12.224559712221147\\
152.52525252525245	12.105144821028913\\
155.45454545454538	11.96382943539675\\
158.3838383838383	11.795533097600222\\
161.31313131313124	11.603246632133972\\
164.24242424242416	11.385767244933152\\
167.1717171717171	11.141635886187556\\
170.10101010101002	10.874045388986442\\
173.03030303030295	10.57766910569797\\
175.95959595959587	10.258892551666824\\
178.8888888888888	9.909879288004838\\
181.81818181818173	9.538767354021294\\
184.74747474747466	9.136661188149422\\
187.67676767676758	8.71200007811303\\
190.6060606060605	8.256290330346694\\
193.53535353535344	7.7768084683296514\\
196.46464646464636	7.2669206620213815\\
199.3939393939393	6.731295597244277\\
202.32323232323222	6.166597725837155\\
205.25252525252515	5.573460577301926\\
208.18181818181807	4.952850471880813\\
211.111111111111	4.301190893730274\\
214.04040404040393	3.6232163479695663\\
216.96969696969686	2.912281085243685\\
219.89898989898978	2.175449030639075\\
222.8282828282827	1.4044257690017186\\
225.75757575757564	0.606953369287105\\
228.68686868686856	-0.22789768893699383\\
231.6161616161615	-1.0989970388164274\\
234.54545454545442	-2.025009415645964\\
237.47474747474735	-3.017263492980052\\
240.40404040404027	-4.104373636237211\\
243.3333333333332	-5.315233782996654\\
246.26262626262613	-6.691243495865192\\
249.19191919191906	-8.284165151568303\\
252.12121212121198	-10.152445363815774\\
255.0505050505049	-12.374984191165376\\
257.97979797979787	-15.033689031384698\\
260.9090909090908	-18.238848998718478\\
263.8383838383838	-22.103017789854487\\
266.76767676767673	-26.772733959605745\\
269.6969696969697	-32.39903568505574\\
272.62626262626264	-39.170264073492184\\
275.5555555555556	-47.284474224747115\\
278.48484848484856	-56.97807499596679\\
281.4141414141415	-68.50540191154865\\
284.34343434343447	-82.15792950728618\\
287.2727272727274	-98.25630389407466\\
290.2020202020204	-117.155216080327\\
293.13131313131333	-139.25129357869085\\
296.0606060606063	-164.97281734097803\\
298.98989898989925	-194.80171256187415\\
301.9191919191922	-229.25185085654502\\
304.84848484848516	-268.9003375235509\\
307.7777777777781	-314.3595403081437\\
310.70707070707107	-366.3124735329028\\
313.636363636364	-425.4838454221263\\
316.565656565657	-492.67416361532804\\
319.49494949494994	-568.980227268982\\
322.4242424242429	-655.1227582862105\\
325.35353535353585	-751.5931057095207\\
328.2828282828288	-859.9303015938498\\
331.21212121212176	-981.2871253753317\\
334.1414141414147	-1116.900025680591\\
337.07070707070767	-1268.0933510624577\\
} node[above,pos=0.16] {4500 m};

\addplot [
color=black,
dashdotted
]
table[row sep=crcr]{
50.0	-9.933666641694392\\
52.92929292929293	-8.866772934273651\\
55.858585858585855	-7.90501566757952\\
58.78787878787878	-7.021176802675024\\
61.71717171717171	-6.206066704148664\\
64.64646464646464	-5.450803934975774\\
67.57575757575756	-4.74838706511468\\
70.50505050505049	-4.094321727098907\\
73.43434343434342	-3.482077090899531\\
76.36363636363635	-2.9098723015340413\\
79.29292929292927	-2.3721501372021696\\
82.2222222222222	-1.8679010094304753\\
85.15151515151513	-1.3936125150592875\\
88.08080808080805	-0.9472865926584616\\
91.01010101010098	-0.5282403712133203\\
93.93939393939391	-0.13293498293675754\\
96.86868686868684	0.23747051068560304\\
99.79797979797976	0.5867599039359389\\
102.72727272727269	0.9136536192925159\\
105.65656565656562	1.2205651716000079\\
108.58585858585855	1.5078070373569445\\
111.51515151515147	1.7751370647274172\\
114.4444444444444	2.025080340751244\\
117.37373737373733	2.2555451947301948\\
120.30303030303025	2.4698010575901144\\
123.23232323232318	2.6656454951922615\\
126.16161616161611	2.8453063851329015\\
129.09090909090904	3.0082432091771634\\
132.02020202020196	3.154104399854478\\
134.9494949494949	3.28480864011312\\
137.87878787878782	3.398046316526987\\
140.80808080808075	3.496783796161893\\
143.73737373737367	3.5784518053896037\\
146.6666666666666	3.6452606799115683\\
149.59595959595953	3.6961511080346123\\
152.52525252525245	3.730944434427852\\
155.45454545454538	3.7510276227556187\\
158.3838383838383	3.7542160148652743\\
161.31313131313124	3.743140159966212\\
164.24242424242416	3.71518225810784\\
167.1717171717171	3.6724904596821255\\
170.10101010101002	3.613695872991284\\
173.03030303030295	3.5388681258861165\\
175.95959595959587	3.4488916416239017\\
178.8888888888888	3.34187835552951\\
181.81818181818173	3.220056799783701\\
184.74747474747466	3.0809597351555817\\
187.67676767676758	2.926581594928981\\
190.6060606060605	2.755404980692225\\
193.53535353535344	2.56772729760361\\
196.46464646464636	2.363980629683894\\
199.3939393939393	2.1426322095341326\\
202.32323232323222	1.9054840185012023\\
205.25252525252515	1.6503197071038924\\
208.18181818181807	1.3785575409704933\\
211.111111111111	1.0868605215816851\\
214.04040404040393	0.7717892927047415\\
216.96969696969686	0.42691233781548904\\
219.89898989898978	0.0414185197295594\\
222.8282828282827	-0.39660120419149286\\
225.75757575757564	-0.9067008458869544\\
228.68686868686856	-1.5099514940541519\\
231.6161616161615	-2.2361617339770006\\
234.54545454545442	-3.1195501776801926\\
237.47474747474735	-4.202375731598143\\
240.40404040404027	-5.535793476754172\\
243.3333333333332	-7.178061187763034\\
246.26262626262613	-9.200306075892298\\
249.19191919191906	-11.681780958206787\\
252.12121212121198	-14.716786914226534\\
255.0505050505049	-18.411005921206716\\
257.97979797979787	-22.885770447519825\\
260.9090909090908	-28.278745719049162\\
263.8383838383838	-34.74336100724578\\
266.76767676767673	-42.45422565297184\\
269.6969696969697	-51.60349073948955\\
272.62626262626264	-62.407843199482116\\
275.5555555555556	-75.10538273468298\\
278.48484848484856	-89.96064111483126\\
281.4141414141415	-107.2652775704729\\
284.34343434343447	-127.33856689890877\\
287.2727272727274	-150.53287387018673\\
290.2020202020204	-177.23079464003752\\
293.13131313131333	-207.85269637137307\\
296.0606060606063	-242.8538802447663\\
298.98989898989925	-282.735862723605\\
301.9191919191922	-328.4052672805715\\
304.84848484848516	-379.6516129756531\\
307.7777777777781	-437.5214165096796\\
310.70707070707107	-502.69318210940264\\
313.636363636364	-575.8976818707217\\
316.565656565657	-657.9207778286893\\
319.49494949494994	-749.6063387224981\\
322.4242424242429	-851.8592529328484\\
325.35353535353585	-965.6485390691377\\
328.2828282828288	-1092.0105556839733\\
331.21212121212176	-1232.0523115925387\\
334.1414141414147	-1386.954878274386\\
337.07070707070767	-1557.9769058352801\\
} node[above,pos=0.22] {9000 m};
\end{axis}
\end{tikzpicture}%
