%RateOfClimb_Phi100_MZFW
\begin{tikzpicture}

\begin{axis}[
width=\figurewidth,
height=\figureheight,
scaled ticks=false, tick label style={/pgf/number format/fixed},
xmin=46.0,
xmax=256.8369602209476,
xlabel={Speed (m/s)},
xmajorgrids,
ymin=0.0,
ymax=16.869008366656296,
ylabel={Rate of Climb (m/s)},
ymajorgrids,
legend style={at={(1.03,0.5)},anchor=west,draw=black,fill=white,legend cell align=left}
]

\addplot [
color=black,
solid
]
table[row sep=crcr]{
50.0	6.318540789682138\\
52.92929292929293	7.164596495850495\\
55.858585858585855	7.885824932391842\\
58.78787878787878	8.641257306540732\\
61.71717171717171	9.275462488480665\\
64.64646464646464	9.952203971457426\\
67.57575757575756	10.50387571966395\\
70.50505050505049	11.10680766801262\\
73.43434343434342	11.577424120789837\\
76.36363636363635	12.109986572805647\\
79.29292929292927	12.505714193569425\\
82.2222222222222	12.972806547105973\\
85.15151515151513	13.303586741526344\\
88.08080808080805	13.709741762361261\\
91.01010101010098	13.981871132028866\\
93.93939393939391	14.329235741481908\\
96.86868686868684	14.545289937032155\\
99.79797979797976	14.833522867689979\\
102.72727272727269	14.991827570033088\\
105.65656565656562	15.218897519738254\\
108.58585858585855	15.316477754779692\\
111.51515151515147	15.480393164146523\\
114.4444444444444	15.516011204161707\\
117.37373737373733	15.614766001096982\\
120.30303030303025	15.587031030315362\\
123.23232323232318	15.619452191348422\\
126.16161616161611	15.529342570293329\\
129.09090909090904	15.495747391472486\\
132.02020202020196	15.346634217013765\\
134.9494949494949	15.24414094742133\\
137.87878787878782	15.032351787559305\\
140.80808080808075	14.8534066872352\\
143.73737373737367	14.56892326728359\\
146.6666666666666	14.309721116653185\\
149.59595959595953	13.950987739311813\\
152.52525252525245	13.617116899695487\\
155.45454545454538	13.195645463503563\\
158.3838383838383	12.793007810051485\\
161.31313131313124	12.317370847367295\\
164.24242424242416	11.842373769310687\\
167.1717171717171	11.30755340887152\\
170.10101010101002	10.7546949725034\\
173.03030303030295	10.154474577377915\\
175.95959595959587	9.52642451739648\\
178.8888888888888	8.863253415456176\\
181.81818181818173	8.162388496835577\\
184.74747474747466	7.436409420302467\\
187.67676767676758	6.652458008585182\\
190.6060606060605	5.85217313943043\\
193.53535353535344	4.967385967203069\\
196.46464646464636	4.077558774371645\\
199.3939393939393	3.0819686165342643\\
202.32323232323222	2.095823033925803\\
205.25252525252515	0.9947081930547126\\
208.18181818181807	-0.08338274920830573\\
211.111111111111	-1.2764285821516792\\
214.04040404040393	-2.4387514088234914\\
216.96969696969686	-3.7212019294635805\\
219.89898989898978	-4.969177807370538\\
222.8282828282827	-6.356646179652862\\
225.75757575757564	-7.701246421928567\\
228.68686868686856	-9.205255883309004\\
231.6161616161615	-10.652813220953664\\
234.54545454545442	-12.267777004483943\\
237.47474747474735	-13.816573686880965\\
240.40404040404027	-15.538517188801567\\
243.3333333333332	-17.193255558484573\\
246.26262626262613	-19.047895181033248\\
249.19191919191906	-20.855483412172287\\
252.12121212121198	-22.924868539036858\\
255.0505050505049	-25.000241664157627\\
257.97979797979787	-27.438815345674627\\
260.9090909090908	-29.986501312321984\\
263.8383838383838	-33.05320602609012\\
266.76767676767673	-36.39715450818206\\
269.6969696969697	-40.487909927151335\\
272.62626262626264	-45.1017428583354\\
275.5555555555556	-50.7781696525762\\
278.48484848484856	-57.315428844188254\\
281.4141414141415	-65.33260815005669\\
284.34343434343447	-74.65722100982163\\
287.2727272727274	-85.98880028287404\\
290.2020202020204	-99.20739877749546\\
293.13131313131333	-115.07598153650335\\
296.0606060606063	-133.5727071070089\\
298.98989898989925	-155.48304989743517\\
301.9191919191922	-180.9864134713304\\
304.84848484848516	-210.83664456926718\\
307.7777777777781	-245.55120808875824\\
310.70707070707107	-285.84226671408015\\
313.636363636364	-332.4418660791055\\
316.565656565657	-386.12956943037386\\
319.49494949494994	-447.77396398203314\\
322.4242424242429	-518.2994347542551\\
325.35353535353585	-598.7197269831163\\
328.2828282828288	-690.1291668698714\\
331.21212121212176	-793.7119344961606\\
334.1414141414147	-910.7469098745412\\
337.07070707070767	-1042.6111077978678\\
340.0	-1190.786210462743\\
} node[above,pos=0.1] {altitude = 0 m};

\addplot [
color=black,
densely dashed
]
table[row sep=crcr]{
50.0	0.17446767576981045\\
52.92929292929293	1.0092126592261172\\
55.858585858585855	1.8364079888762093\\
58.78787878787878	2.549062595232355\\
61.71717171717171	3.2752711316790037\\
64.64646464646464	3.8983596774989744\\
67.57575757575756	4.53950231316115\\
70.50505050505049	5.094993274624625\\
73.43434343434342	5.657190474247069\\
76.36363636363635	6.157087655261186\\
79.29292929292927	6.639510194613053\\
82.2222222222222	7.0917095693241174\\
85.15151515151513	7.495525696579653\\
88.08080808080805	7.903795123780804\\
91.01010101010098	8.239992889022343\\
93.93939393939391	8.606311129863712\\
96.86868686868684	8.88642747632911\\
99.79797979797976	9.20962332996146\\
102.72727272727269	9.441821074552324\\
105.65656565656562	9.716986017757154\\
108.58585858585855	9.904968441412715\\
111.51515151515147	10.124268534169037\\
114.4444444444444	10.271204477609718\\
117.37373737373733	10.427697520277208\\
120.30303030303025	10.542094647901873\\
123.23232323232318	10.633393805648042\\
126.16161616161611	10.721414747229407\\
129.09090909090904	10.753141185225868\\
132.02020202020196	10.812127555666814\\
134.9494949494949	10.790498303691994\\
137.87878787878782	10.812639954170203\\
140.80808080808075	10.73937390973449\\
143.73737373737367	10.716119906509824\\
146.6666666666666	10.596327747974572\\
149.59595959595953	10.522923972116212\\
152.52525252525245	10.36729459061635\\
155.45454545454538	10.239070870416104\\
158.3838383838383	10.053675351167321\\
161.31313131313124	9.861191274495742\\
164.24242424242416	9.644989899646193\\
167.1717171717171	9.383646342180858\\
170.10101010101002	9.13254307858516\\
173.03030303030295	8.813768082062841\\
175.95959595959587	8.526184535004548\\
178.8888888888888	8.15917800510918\\
181.81818181818173	7.829636050245402\\
184.74747474747466	7.418329883229596\\
187.67676767676758	7.041759488655394\\
190.6060606060605	6.593612343191518\\
193.53535353535344	6.167230283379733\\
196.46464646464636	5.685834333056885\\
199.3939393939393	5.198641858920693\\
202.32323232323222	4.67378344978518\\
205.25252525252515	4.109533485646129\\
208.18181818181807	3.5303361885182496\\
211.111111111111	2.886139559771617\\
214.04040404040393	2.2506945834891945\\
216.96969696969686	1.5328894310019208\\
219.89898989898978	0.840609569547183\\
222.8282828282827	0.05979043673939216\\
225.75757575757564	-0.6881907903135519\\
228.68686868686856	-1.5170225831409343\\
231.6161616161615	-2.328832376819251\\
234.54545454545442	-3.221402918035277\\
237.47474747474735	-4.147378214685255\\
240.40404040404027	-5.180123862475201\\
243.3333333333332	-6.328403365353438\\
246.26262626262613	-7.642468764795582\\
249.19191919191906	-9.186402992464851\\
252.12121212121198	-10.9957882523271\\
255.0505050505049	-13.18806152281355\\
257.97979797979787	-15.798588169031374\\
260.9090909090908	-18.9920486426754\\
263.8383838383838	-22.823467392384345\\
266.76767676767673	-27.493343412917817\\
269.6969696969697	-33.10661375538233\\
272.62626262626264	-39.8906452891905\\
275.5555555555556	-48.02442866840866\\
278.48484848484856	-57.76484483579903\\
281.4141414141415	-69.37016259049574\\
284.34343434343447	-83.14138848908041\\
287.2727272727274	-99.41028148786182\\
290.2020202020204	-118.53895349150913\\
293.13131313131333	-140.93084150864678\\
296.0606060606063	-167.02704234701994\\
298.98989898989925	-197.31420742549358\\
301.9191919191922	-232.324547043683\\
304.84848484848516	-272.6403530533359\\
307.7777777777781	-318.8960956916679\\
310.70707070707107	-371.78201615269444\\
313.636363636364	-432.0472569726919\\
316.565656565657	-500.5033143369022\\
319.49494949494994	-578.0276353904228\\
322.4242424242429	-665.5672654745334\\
325.35353535353585	-764.1426876352697\\
328.2828282828288	-874.8517344292488\\
331.21212121212176	-998.8736669095854\\
334.1414141414147	-1137.473366478865\\
337.07070707070767	-1292.0056648193024\\
340.0	-1463.9198094987507\\
} node[above,pos=0.16] {4500 m};

\addplot [
color=black,
dashdotted
]
table[row sep=crcr]{
50.0	-8.756788564206268\\
52.92929292929293	-7.683776164297731\\
55.858585858585855	-6.739483959100538\\
58.78787878787878	-5.847501835320037\\
61.71717171717171	-5.041585349144652\\
64.64646464646464	-4.2905766234359515\\
67.57575757575756	-3.58372084705638\\
70.50505050505049	-2.9487050967773274\\
73.43434343434342	-2.327040914381292\\
76.36363636363635	-1.7797996193703955\\
79.29292929292927	-1.236587581081727\\
82.2222222222222	-0.749149730851179\\
85.15151515151513	-0.278117139428318\\
88.08080808080805	0.17060664796651298\\
91.01010101010098	0.5806673748424821\\
93.93939393939391	0.992312708340801\\
96.86868686868684	1.3612297899389625\\
99.79797979797976	1.7336308054373168\\
102.72727272727269	2.072122316684978\\
105.65656565656562	2.397977710300098\\
108.58585858585855	2.705372207385291\\
111.51515151515147	2.975007219416339\\
114.4444444444444	3.2445502713619225\\
117.37373737373733	3.4684690459032934\\
120.30303030303025	3.703467716225019\\
123.23232323232318	3.90484808680592\\
126.16161616161611	4.106261964997013\\
129.09090909090904	4.290390286404975\\
132.02020202020196	4.445071159133819\\
134.9494949494949	4.597402034083322\\
137.87878787878782	4.704733928438622\\
140.80808080808075	4.8218410732830135\\
143.73737373737367	4.9019579160093665\\
146.6666666666666	4.988820613611387\\
149.59595959595953	5.057437757253249\\
152.52525252525245	5.115399907397228\\
155.45454545454538	5.167144479550858\\
158.3838383838383	5.200518060803638\\
161.31313131313124	5.2286662551352086\\
164.24242424242416	5.239692097047042\\
167.1717171717171	5.241761066198538\\
170.10101010101002	5.228461444080203\\
173.03030303030295	5.202059880573925\\
175.95959595959587	5.1586355706131535\\
178.8888888888888	5.096415718115116\\
181.81818181818173	5.015855234444927\\
184.74747474747466	4.911101226013748\\
187.67676767676758	4.792416889765293\\
190.6060606060605	4.654094450980052\\
193.53535353535344	4.5058698212014985\\
196.46464646464636	4.342785779113399\\
199.3939393939393	4.165710496228397\\
202.32323232323222	3.9700048059260657\\
205.25252525252515	3.7519284243165743\\
208.18181818181807	3.515760486827655\\
211.111111111111	3.2563624441210863\\
214.04040404040393	2.981104245588495\\
216.96969696969686	2.6775274167141094\\
219.89898989898978	2.349489074024615\\
222.8282828282827	1.9632587166823916\\
225.75757575757564	1.5180997697742988\\
228.68686868686856	0.9654157173465051\\
231.6161616161615	0.2923792371511334\\
234.54545454545442	-0.5487711074371889\\
237.47474747474735	-1.5923749834914702\\
240.40404040404027	-2.892763152014842\\
243.3333333333332	-4.506164842467867\\
246.26262626262613	-6.505883634181033\\
249.19191919191906	-8.970366332805572\\
252.12121212121198	-11.996653638148906\\
255.0505050505049	-15.687712352624056\\
257.97979797979787	-20.172892299636267\\
260.9090909090908	-25.579933751711422\\
263.8383838383838	-32.08643251225366\\
266.76767676767673	-39.85458360523461\\
269.6969696969697	-49.10145744540276\\
272.62626262626264	-60.035091311419094\\
275.5555555555556	-72.90286881805497\\
278.48484848484856	-87.97110010354609\\
281.4141414141415	-105.53739376606285\\
284.34343434343447	-125.92859642133475\\
287.2727272727274	-149.50365384466414\\
290.2020202020204	-176.65511468484948\\
293.13131313131333	-207.81136364043385\\
296.0606060606063	-243.4388940273788\\
298.98989898989925	-284.0445572915197\\
301.9191919191922	-330.17810611057257\\
304.84848484848516	-382.4346523951944\\
307.7777777777781	-441.4573072067594\\
310.70707070707107	-507.9398682150182\\
313.636363636364	-582.6296146357815\\
316.565656565657	-666.3301943850628\\
319.49494949494994	-759.9046092497188\\
322.4242424242429	-864.2782984850822\\
325.35353535353585	-980.4423223516987\\
328.2828282828288	-1109.4566471033409\\
331.21212121212176	-1252.4535329384983\\
334.1414141414147	-1410.6410264275912\\
337.07070707070767	-1585.306558928186\\
340.0	-1777.820652500518\\
} node[above,pos=0.22] {9000 m};
\end{axis}
\end{tikzpicture}%
