\relax 
\providecommand \oddpage@label [2]{}
\select@language{english}
\@writefile{toc}{\select@language{english}}
\@writefile{lof}{\select@language{english}}
\@writefile{lot}{\select@language{english}}
\@writefile{toc}{\contentsline {section}{\numberline {1}Eclipse setup}{1}}
\@writefile{tdo}{\contentsline {todo}{\color@fb@x {}{orange}{}{orange!20}{\leavevmode {\color {orange!20}o}}\ \sffamily  1.~\textbf  {[\uppercase {ADM}]:}~Add the remaining variables.}{2}}
\pgfsyspdfmark {pgfid1}{19562753}{37769164}
