%cl_distributionWingSchrenk
\begin{tikzpicture}

\begin{axis}[
width=\figurewidth,
height=\figureheight,
scaled ticks=false, tick label style={/pgf/number format/fixed},
xmin=0.0,
xmax=1.08,
xlabel={$Y\;(\mathrm{m})$ },
xmajorgrids,
ymin=-813.1807701501003,
ymax=143.50248885004305,
ylabel={$C_l$ },
ymajorgrids,
legend style={at={(1.03,0.5)},anchor=west,draw=black,fill=white,legend cell align=left}
]

\addplot [
color=black,
solid
]
table[row sep=crcr]{
0.0	6.585526159298872\\
0.02040816326530612	4.20175768234028\\
0.04081632653061224	3.9669292318228107\\
0.061224489795918366	3.8105051270226964\\
0.08163265306122448	3.8113084465233626\\
0.1020408163265306	3.967509612364484\\
0.12244897959183672	4.137061305200573\\
0.14285714285714285	4.321751542039884\\
0.16326530612244897	4.523702548677262\\
0.18367346938775508	4.745452673612422\\
0.2040816326530612	4.990063636169763\\
0.22448979591836732	5.261262746831163\\
0.24489795918367344	5.563634169062839\\
0.26530612244897955	5.902880154981305\\
0.2857142857142857	6.286184061148922\\
0.30612244897959184	6.702775883203303\\
0.326530612244898	7.125663951544207\\
0.34693877551020413	7.605506641883885\\
0.3673469387755103	8.154640695449508\\
0.3877551020408164	8.789243084200445\\
0.40816326530612257	9.530951361348166\\
0.4285714285714287	10.409380058246612\\
0.44897959183673486	11.466169911875713\\
0.469387755102041	12.7617823312967\\
0.48979591836734715	14.387487086875904\\
0.5102040816326533	16.487850165251945\\
0.5306122448979594	19.306286090936073\\
0.5510204081632656	23.286963635458978\\
0.5714285714285717	29.335525618695097\\
0.5918367346938779	39.628692502447855\\
0.612244897959184	61.04960736863621\\
0.6326530612244902	132.87267486115095\\
0.6530612244897963	-752.9451575463892\\
0.6734693877551025	-98.21023794084617\\
0.6938775510204086	-52.5310575032439\\
0.7142857142857147	-35.85453131173799\\
0.7346938775510209	-27.214885212524052\\
0.755102040816327	-21.9304414819369\\
0.7755102040816332	-18.364516037719525\\
0.7959183673469393	-15.796052256220293\\
0.8163265306122455	-13.857886335211681\\
0.8367346938775516	-12.34336323846723\\
0.8571428571428578	-11.127268338125637\\
0.8775510204081639	-10.129307052195092\\
0.89795918367347	-9.295619228969155\\
0.9183673469387762	-8.588728032849833\\
0.9387755102040823	-7.981750786712038\\
0.9591836734693885	-7.454902549965366\\
0.9795918367346946	-6.993298676902497\\
1.0	-6.585526159298869\\
} node[above,pos=0.580] {$\alpha$ = 5 °};
\end{axis}
\end{tikzpicture}%
