%RangeVsSpeedVsAltitude
\begin{tikzpicture}

\begin{axis}[
width=\figurewidth,
height=\figureheight,
scaled ticks=false, tick label style={/pgf/number format/fixed},
xmin=46.0,
xmax=367.20000000000005,
xlabel={Speed (m/s)},
xmajorgrids,
ymin=0.0,
ymax=2806958.2402217137,
ylabel={Range (m)},
ymajorgrids,
legend style={at={(1.03,0.5)},anchor=west,draw=black,fill=white,legend cell align=left}
]

\addplot [
color=black,
solid
]
table[row sep=crcr]{
50.0	0.0\\
52.92929292929293	0.0\\
55.858585858585855	0.0\\
58.78787878787878	0.0\\
61.71717171717171	0.0\\
64.64646464646464	0.0\\
67.57575757575756	0.0\\
70.50505050505049	0.0\\
73.43434343434342	0.0\\
76.36363636363635	1782438.6549360335\\
79.29292929292927	1900445.6557179738\\
82.2222222222222	2017286.0914786279\\
85.15151515151513	2130950.8897313136\\
88.08080808080805	2236281.894934121\\
91.01010101010098	2325750.954313195\\
93.93939393939391	2403414.8614599723\\
96.86868686868684	2466379.4364690767\\
99.79797979797976	2518754.738009026\\
102.72727272727269	2555468.2375196773\\
105.65656565656562	2580989.211458745\\
108.58585858585855	2593031.3670257083\\
111.51515151515147	2599035.4076126977\\
114.4444444444444	2596984.912127636\\
117.37373737373733	2587151.7545917495\\
120.30303030303025	2567909.7049927153\\
123.23232323232318	2546797.889373038\\
126.16161616161611	0.0\\
129.09090909090904	0.0\\
132.02020202020196	0.0\\
134.9494949494949	0.0\\
137.87878787878782	0.0\\
140.80808080808075	0.0\\
143.73737373737367	0.0\\
146.6666666666666	0.0\\
149.59595959595953	0.0\\
152.52525252525245	0.0\\
155.45454545454538	0.0\\
158.3838383838383	0.0\\
161.31313131313124	0.0\\
164.24242424242416	0.0\\
167.1717171717171	0.0\\
170.10101010101002	0.0\\
173.03030303030295	0.0\\
175.95959595959587	0.0\\
178.8888888888888	0.0\\
181.81818181818173	0.0\\
184.74747474747466	0.0\\
187.67676767676758	0.0\\
190.6060606060605	0.0\\
193.53535353535344	0.0\\
196.46464646464636	0.0\\
199.3939393939393	0.0\\
202.32323232323222	0.0\\
205.25252525252515	0.0\\
208.18181818181807	0.0\\
211.111111111111	0.0\\
214.04040404040393	0.0\\
216.96969696969686	0.0\\
219.89898989898978	0.0\\
222.8282828282827	0.0\\
225.75757575757564	0.0\\
228.68686868686856	0.0\\
231.6161616161615	0.0\\
234.54545454545442	0.0\\
237.47474747474735	0.0\\
240.40404040404027	0.0\\
243.3333333333332	0.0\\
246.26262626262613	0.0\\
249.19191919191906	0.0\\
252.12121212121198	0.0\\
255.0505050505049	0.0\\
257.97979797979787	0.0\\
260.9090909090908	0.0\\
263.8383838383838	0.0\\
266.76767676767673	0.0\\
269.6969696969697	0.0\\
272.62626262626264	0.0\\
275.5555555555556	0.0\\
278.48484848484856	0.0\\
281.4141414141415	0.0\\
284.34343434343447	0.0\\
287.2727272727274	0.0\\
290.2020202020204	0.0\\
293.13131313131333	0.0\\
296.0606060606063	0.0\\
298.98989898989925	0.0\\
301.9191919191922	0.0\\
304.84848484848516	0.0\\
307.7777777777781	0.0\\
310.70707070707107	0.0\\
313.636363636364	0.0\\
316.565656565657	0.0\\
319.49494949494994	0.0\\
322.4242424242429	0.0\\
325.35353535353585	0.0\\
328.2828282828288	0.0\\
331.21212121212176	0.0\\
334.1414141414147	0.0\\
337.07070707070767	0.0\\
340.0	0.0\\
} node[above,pos=0.1] {altitude = 0 };

\addplot [
color=black,
densely dashed
]
table[row sep=crcr]{
50.0	0.0\\
52.92929292929293	0.0\\
55.858585858585855	0.0\\
58.78787878787878	0.0\\
61.71717171717171	0.0\\
64.64646464646464	0.0\\
67.57575757575756	0.0\\
70.50505050505049	0.0\\
73.43434343434342	0.0\\
76.36363636363635	0.0\\
79.29292929292927	0.0\\
82.2222222222222	0.0\\
85.15151515151513	0.0\\
88.08080808080805	0.0\\
91.01010101010098	0.0\\
93.93939393939391	0.0\\
96.86868686868684	0.0\\
99.79797979797976	0.0\\
102.72727272727269	0.0\\
105.65656565656562	0.0\\
108.58585858585855	0.0\\
111.51515151515147	0.0\\
114.4444444444444	0.0\\
117.37373737373733	0.0\\
120.30303030303025	0.0\\
123.23232323232318	0.0\\
126.16161616161611	0.0\\
129.09090909090904	0.0\\
132.02020202020196	0.0\\
134.9494949494949	0.0\\
137.87878787878782	0.0\\
140.80808080808075	0.0\\
143.73737373737367	0.0\\
146.6666666666666	0.0\\
149.59595959595953	0.0\\
152.52525252525245	0.0\\
155.45454545454538	0.0\\
158.3838383838383	0.0\\
161.31313131313124	0.0\\
164.24242424242416	0.0\\
167.1717171717171	0.0\\
170.10101010101002	0.0\\
173.03030303030295	0.0\\
175.95959595959587	0.0\\
178.8888888888888	0.0\\
181.81818181818173	0.0\\
184.74747474747466	0.0\\
187.67676767676758	0.0\\
190.6060606060605	0.0\\
193.53535353535344	0.0\\
196.46464646464636	0.0\\
199.3939393939393	0.0\\
202.32323232323222	0.0\\
205.25252525252515	0.0\\
208.18181818181807	0.0\\
211.111111111111	0.0\\
214.04040404040393	0.0\\
216.96969696969686	0.0\\
219.89898989898978	0.0\\
222.8282828282827	0.0\\
225.75757575757564	0.0\\
228.68686868686856	0.0\\
231.6161616161615	0.0\\
234.54545454545442	0.0\\
237.47474747474735	0.0\\
240.40404040404027	0.0\\
243.3333333333332	0.0\\
246.26262626262613	0.0\\
249.19191919191906	0.0\\
252.12121212121198	0.0\\
255.0505050505049	0.0\\
257.97979797979787	0.0\\
260.9090909090908	0.0\\
263.8383838383838	0.0\\
266.76767676767673	0.0\\
269.6969696969697	0.0\\
272.62626262626264	0.0\\
275.5555555555556	0.0\\
278.48484848484856	0.0\\
281.4141414141415	0.0\\
284.34343434343447	0.0\\
287.2727272727274	0.0\\
290.2020202020204	0.0\\
293.13131313131333	0.0\\
296.0606060606063	0.0\\
298.98989898989925	0.0\\
301.9191919191922	0.0\\
304.84848484848516	0.0\\
307.7777777777781	0.0\\
310.70707070707107	0.0\\
313.636363636364	0.0\\
316.565656565657	0.0\\
319.49494949494994	0.0\\
322.4242424242429	0.0\\
325.35353535353585	0.0\\
328.2828282828288	0.0\\
331.21212121212176	0.0\\
334.1414141414147	0.0\\
337.07070707070767	0.0\\
340.0	0.0\\
} node[above,pos=0.16] {4500 };

\addplot [
color=black,
dashdotted
]
table[row sep=crcr]{
50.0	0.0\\
52.92929292929293	0.0\\
55.858585858585855	0.0\\
58.78787878787878	0.0\\
61.71717171717171	0.0\\
64.64646464646464	0.0\\
67.57575757575756	0.0\\
70.50505050505049	0.0\\
73.43434343434342	0.0\\
76.36363636363635	0.0\\
79.29292929292927	0.0\\
82.2222222222222	0.0\\
85.15151515151513	0.0\\
88.08080808080805	0.0\\
91.01010101010098	0.0\\
93.93939393939391	0.0\\
96.86868686868684	0.0\\
99.79797979797976	0.0\\
102.72727272727269	0.0\\
105.65656565656562	0.0\\
108.58585858585855	0.0\\
111.51515151515147	0.0\\
114.4444444444444	0.0\\
117.37373737373733	0.0\\
120.30303030303025	0.0\\
123.23232323232318	0.0\\
126.16161616161611	0.0\\
129.09090909090904	0.0\\
132.02020202020196	0.0\\
134.9494949494949	0.0\\
137.87878787878782	0.0\\
140.80808080808075	0.0\\
143.73737373737367	0.0\\
146.6666666666666	0.0\\
149.59595959595953	0.0\\
152.52525252525245	0.0\\
155.45454545454538	0.0\\
158.3838383838383	0.0\\
161.31313131313124	0.0\\
164.24242424242416	0.0\\
167.1717171717171	0.0\\
170.10101010101002	0.0\\
173.03030303030295	0.0\\
175.95959595959587	0.0\\
178.8888888888888	0.0\\
181.81818181818173	0.0\\
184.74747474747466	0.0\\
187.67676767676758	0.0\\
190.6060606060605	0.0\\
193.53535353535344	0.0\\
196.46464646464636	0.0\\
199.3939393939393	0.0\\
202.32323232323222	0.0\\
205.25252525252515	0.0\\
208.18181818181807	0.0\\
211.111111111111	0.0\\
214.04040404040393	0.0\\
216.96969696969686	0.0\\
219.89898989898978	0.0\\
222.8282828282827	0.0\\
225.75757575757564	0.0\\
228.68686868686856	0.0\\
231.6161616161615	0.0\\
234.54545454545442	0.0\\
237.47474747474735	0.0\\
240.40404040404027	0.0\\
243.3333333333332	0.0\\
246.26262626262613	0.0\\
249.19191919191906	0.0\\
252.12121212121198	0.0\\
255.0505050505049	0.0\\
257.97979797979787	0.0\\
260.9090909090908	0.0\\
263.8383838383838	0.0\\
266.76767676767673	0.0\\
269.6969696969697	0.0\\
272.62626262626264	0.0\\
275.5555555555556	0.0\\
278.48484848484856	0.0\\
281.4141414141415	0.0\\
284.34343434343447	0.0\\
287.2727272727274	0.0\\
290.2020202020204	0.0\\
293.13131313131333	0.0\\
296.0606060606063	0.0\\
298.98989898989925	0.0\\
301.9191919191922	0.0\\
304.84848484848516	0.0\\
307.7777777777781	0.0\\
310.70707070707107	0.0\\
313.636363636364	0.0\\
316.565656565657	0.0\\
319.49494949494994	0.0\\
322.4242424242429	0.0\\
325.35353535353585	0.0\\
328.2828282828288	0.0\\
331.21212121212176	0.0\\
334.1414141414147	0.0\\
337.07070707070767	0.0\\
340.0	0.0\\
} node[above,pos=0.22] {9000 };
\end{axis}
\end{tikzpicture}%
