%RateOfClimb_Phi100_0.87MTOW
\begin{tikzpicture}

\begin{axis}[
width=\figurewidth,
height=\figureheight,
scaled ticks=false, tick label style={/pgf/number format/fixed},
xmin=46.0,
xmax=256.8369602209476,
xlabel={Speed (m/s)},
xmajorgrids,
ymin=0.0,
ymax=4.401968051458242,
ylabel={Rate of Climb (m/s)},
ymajorgrids,
legend style={at={(1.03,0.5)},anchor=west,draw=black,fill=white,legend cell align=left}
]

\addplot [
color=black,
solid
]
table[row sep=crcr]{
50.0	0.17586233318928063\\
52.92929292929293	0.7041380221088895\\
55.858585858585855	1.1487191973591981\\
58.78787878787878	1.5911961895513664\\
61.71717171717171	1.9554775111622569\\
64.64646464646464	2.324720436893096\\
67.57575757575756	2.616124472678395\\
70.50505050505049	2.918640818487349\\
73.43434343434342	3.141094706911269\\
76.36363636363635	3.3810900241212165\\
79.29292929292927	3.539595401056357\\
82.2222222222222	3.7209758969491094\\
85.15151515151513	3.8215807028173834\\
88.08080808080805	3.947376218495232\\
91.01010101010098	3.9937307994972198\\
93.93939393939391	4.0652976409610195\\
96.86868686868684	4.058787752731577\\
99.79797979797976	4.075896343942817\\
102.72727272727269	4.015492099275752\\
105.65656565656562	3.9768194010860163\\
108.58585858585855	3.86062719860479\\
111.51515151515147	3.7646859385924594\\
114.4444444444444	3.5915212818889537\\
117.37373737373733	3.4366781599623177\\
120.30303030303025	3.205158826763935\\
123.23232323232318	2.9900908643401505\\
126.16161616161611	2.699925827584385\\
129.09090909090904	2.423972811587445\\
132.02020202020196	2.075994497634759\\
134.9494949494949	1.7368319764653541\\
137.87878787878782	1.3282934493307248\\
140.80808080808075	0.9212095767239873\\
143.73737373737367	0.4461449930157871\\
146.6666666666666	-0.03173905950821352\\
149.59595959595953	-0.5751013287406944\\
152.52525252525245	-1.1220010009455195\\
155.45454545454538	-1.7289289441368092\\
158.3838383838383	-2.342930202989683\\
161.31313131313124	-3.010186224946976\\
164.24242424242416	-3.6941447438165524\\
167.1717171717171	-4.425306890284764\\
170.10101010101002	-5.183051633903842\\
173.03030303030295	-5.9823143430044015\\
175.95959595959587	-6.813603997355437\\
178.8888888888888	-7.680842972860631\\
181.81818181818173	-8.585595779147818\\
184.74747474747466	-9.521852030257506\\
187.67676767676758	-10.506321476302912\\
190.6060606060605	-11.518466464343973\\
193.53535353535344	-12.592654242490317\\
196.46464646464636	-13.689437456674163\\
199.3939393939393	-14.859462257483008\\
202.32323232323222	-16.045410379889304\\
205.25252525252515	-17.30977501343996\\
208.18181818181807	-18.583846566200293\\
211.111111111111	-19.93690208349967\\
214.04040404040393	-21.296390886282644\\
216.96969696969686	-22.73802717105745\\
219.89898989898978	-24.18479915440035\\
222.8282828282827	-25.723980292933163\\
225.75757575757564	-27.264680633030792\\
228.68686868686856	-28.90832964817968\\
231.6161616161615	-30.547287878408312\\
234.54545454545442	-32.29377620673391\\
237.47474747474735	-34.03129982075773\\
240.40404040404027	-35.879906423734035\\
243.3333333333332	-37.72124679885917\\
246.26262626262613	-39.693951149603144\\
249.19191919191906	-41.68363063062281\\
252.12121212121198	-43.858473459555974\\
255.0505050505049	-46.10972867871616\\
257.97979797979787	-48.64130624415379\\
260.9090909090908	-51.358425861434846\\
263.8383838383838	-54.50612521475062\\
266.76767676767673	-58.012334057399244\\
269.6969696969697	-62.17034917338161\\
272.62626262626264	-66.93753842502734\\
275.5555555555556	-72.66468486606071\\
278.48484848484856	-79.34485664555021\\
281.4141414141415	-87.39566023919322\\
284.34343434343447	-96.85427774346533\\
287.2727272727274	-108.21057330108651\\
290.2020202020204	-121.5627147560958\\
293.13131313131333	-137.46980426137213\\
296.0606060606063	-156.11951771309114\\
298.98989898989925	-178.1257303244058\\
301.9191919191922	-203.8234545238557\\
304.84848484848516	-233.86079633491337\\
307.7777777777781	-268.7953116124127\\
310.70707070707107	-309.3113852426086\\
313.636363636364	-356.13473500923504\\
316.565656565657	-410.04821337001493\\
319.49494949494994	-471.9146195002861\\
322.4242424242429	-542.6622207604096\\
325.35353535353585	-623.3037453918339\\
328.2828282828288	-714.9342825866722\\
331.21212121212176	-818.73828810495\\
334.1414141414147	-935.9944571851488\\
337.07070707070767	-1068.079973840706\\
340.0	-1216.4763922910124\\
} node[above,pos=0.1] {altitude = 0 m};

\addplot [
color=black,
densely dashed
]
table[row sep=crcr]{
50.0	-4.3826475570976715\\
52.92929292929293	-3.755869167499917\\
55.858585858585855	-3.1613254292058426\\
58.78787878787878	-2.6489594040525817\\
61.71717171717171	-2.151881741001347\\
64.64646464646464	-1.7261368636224055\\
67.57575757575756	-1.3092755857458098\\
70.50505050505049	-0.9516296264673758\\
73.43434343434342	-0.6057718407033629\\
76.36363636363635	-0.30517778582410404\\
79.29292929292927	-0.026587069159331234\\
82.2222222222222	0.22432592534048926\\
85.15151515151513	0.4390586340350571\\
88.08080808080805	0.6445047617933148\\
91.01010101010098	0.8027916348259088\\
93.93939393939391	0.9653328550499916\\
96.86868686868684	1.0742234243616817\\
99.79797979797976	1.1943078874087454\\
102.72727272727269	1.2587063998229258\\
105.65656565656562	1.3345219204619307\\
108.58585858585855	1.3567664509982629\\
111.51515151515147	1.3847478948257679\\
114.4444444444444	1.36665781812011\\
117.37373737373733	1.3434671481115932\\
120.30303030303025	1.2893402076132854\\
123.23232323232318	1.2137496405593031\\
126.16161616161611	1.1265638285532404\\
129.09090909090904	1.001219686807301\\
132.02020202020196	0.879427538128315\\
134.9494949494949	0.7071720531649985\\
137.87878787878782	0.5465594177491108\\
140.80808080808075	0.32790472264390114\\
143.73737373737367	0.1238145609953457\\
146.6666666666666	-0.13909633935650922\\
149.59595959595953	-0.3894811068422294\\
152.52525252525245	-0.6917687589472128\\
155.45454545454538	-0.9912707813732542\\
158.3838383838383	-1.330407648077176\\
161.31313131313124	-1.6842736867466273\\
164.24242424242416	-2.0613230460180185\\
167.1717171717171	-2.47241144058967\\
170.10101010101002	-2.889994098050684\\
173.03030303030295	-3.3531764206763137\\
175.95959595959587	-3.812678885886196\\
178.8888888888888	-4.323963238781103\\
181.81818181818173	-4.8287424915185095\\
184.74747474747466	-5.386789911584895\\
187.67676767676758	-5.940016300837143\\
190.6060606060605	-6.5417404877979735\\
193.53535353535344	-7.145455759601408\\
196.46464646464636	-7.789717326127824\\
199.3939393939393	-8.450083630834454\\
202.32323232323222	-9.142657809417239\\
205.25252525252515	-9.868472312277055\\
208.18181818181807	-10.615475793951767\\
211.111111111111	-11.408866066387612\\
214.04040404040393	-12.211940425609875\\
216.96969696969686	-13.070428483608943\\
219.89898989898978	-13.930562053427485\\
222.8282828282827	-14.849548762460772\\
225.75757575757564	-15.766980865927179\\
228.68686868686856	-16.74102338189649\\
231.6161616161615	-17.726090998380503\\
234.54545454545442	-18.7769147496876\\
237.47474747474735	-19.87859294214795\\
240.40404040404027	-21.080003440251698\\
243.3333333333332	-22.401659110181402\\
246.26262626262613	-23.889306566984324\\
249.19191919191906	-25.60068792153708\\
252.12121212121198	-27.585003669376242\\
255.0505050505049	-29.938758255855845\\
257.97979797979787	-32.724504801916304\\
260.9090909090908	-36.07728746868582\\
263.8383838383838	-40.08594701178091\\
266.76767676767673	-44.92152022908234\\
269.6969696969697	-50.71759995277234\\
272.62626262626264	-57.68025422072628\\
275.5555555555556	-66.00359259340841\\
278.48484848484856	-75.93391577281172\\
281.4141414141415	-87.73252877636081\\
284.34343434343447	-101.69752929066304\\
287.2727272727274	-118.15897839906705\\
290.2020202020204	-137.47991525570237\\
293.13131313131333	-160.06310954645195\\
296.0606060606063	-186.35054819334613\\
298.98989898989925	-216.8287560812316\\
301.9191919191922	-252.03022646736855\\
304.84848484848516	-292.5371665363061\\
307.7777777777781	-338.9840869704519\\
310.70707070707107	-392.06119731469636\\
313.636363636364	-452.51762916353226\\
316.565656565657	-521.1648802146111\\
319.49494949494994	-598.8803917206191\\
322.4242424242429	-686.611212790536\\
325.35353535353585	-785.3778237041188\\
328.2828282828288	-896.278059242586\\
331.21212121212176	-1020.491180467411\\
334.1414141414147	-1159.2820687811789\\
337.07070707070767	-1314.0055558661045\\
340.0	-1486.110889290041\\
} node[above,pos=0.16] {4500 m};

\addplot [
color=black,
dashdotted
]
table[row sep=crcr]{
50.0	-11.651489078705879\\
52.92929292929293	-10.73182559604495\\
55.858585858585855	-9.923867380718011\\
58.78787878787878	-9.179689316425362\\
61.71717171717171	-8.511209597847852\\
64.64646464646464	-7.8988337615597155\\
67.57575757575756	-7.333884905512399\\
70.50505050505049	-6.827474354838673\\
73.43434343434342	-6.348079805881171\\
76.36363636363635	-5.924325879223731\\
79.29292929292927	-5.51940395940473\\
82.2222222222222	-5.157820646747933\\
85.15151515151513	-4.8187292441197895\\
88.08080808080805	-4.504089063493303\\
91.01010101010098	-4.221227222570622\\
93.93939393939391	-3.9492901173708987\\
96.86868686868684	-3.7098064666703525\\
99.79797979797976	-3.4791295485786775\\
102.72727272727269	-3.27549011892705\\
105.65656565656562	-3.0878498364938958\\
108.58585858585855	-2.9187750830559076\\
111.51515151515147	-2.7776174776222606\\
114.4444444444444	-2.6452877293489174\\
117.37373737373733	-2.5443333561348753\\
120.30303030303025	-2.446216027293216\\
123.23232323232318	-2.3731271427322467\\
126.16161616161611	-2.308108333151206\\
129.09090909090904	-2.259709034537164\\
132.02020202020196	-2.2339199843569193\\
134.9494949494949	-2.217119977934257\\
137.87878787878782	-2.2305768733777143\\
140.80808080808075	-2.2468611195249206\\
143.73737373737367	-2.2893258080303918\\
146.6666666666666	-2.336084653379069\\
149.59595959595953	-2.3996255068631664\\
152.52525252525245	-2.4761545947703985\\
155.45454545454538	-2.563463193672549\\
158.3838383838383	-2.6676456881762647\\
161.31313131313124	-2.782153949706198\\
164.24242424242416	-2.912967505880337\\
167.1717171717171	-3.0560404749678685\\
170.10101010101002	-3.2146208870072344\\
173.03030303030295	-3.387622450824138\\
175.95959595959587	-3.577057060918127\\
178.8888888888888	-3.7838667004829776\\
181.81818181818173	-4.007883262445754\\
184.74747474747466	-4.252096007307253\\
187.67676767676758	-4.511439344979471\\
190.6060606060605	-4.7888361203995435\\
193.53535353535344	-5.079490061376089\\
196.46464646464636	-5.385953984926693\\
199.3939393939393	-5.7078703491230875\\
202.32323232323222	-6.047637449359485\\
205.25252525252515	-6.407207330611323\\
208.18181818181807	-6.784664587425885\\
211.111111111111	-7.183495197826385\\
214.04040404040393	-7.602004732624674\\
216.96969696969686	-8.04973593851189\\
219.89898989898978	-8.529665571682626\\
222.8282828282827	-9.06544838557869\\
225.75757575757564	-9.666443038503058\\
228.68686868686856	-10.368480755488815\\
231.6161616161615	-11.192418291991048\\
234.54545454545442	-12.179883675367707\\
237.47474747474735	-13.369519660567452\\
240.40404040404027	-14.814139623720193\\
243.3333333333332	-16.57215952956959\\
246.26262626262613	-18.715693724926215\\
249.19191919191906	-21.325127556607253\\
252.12121212121198	-24.49641196655016\\
255.0505050505049	-28.335330693348116\\
257.97979797979787	-32.96836241961545\\
260.9090909090908	-38.52935151993818\\
263.8383838383838	-45.18594173630747\\
266.76767676767673	-53.10768401323625\\
269.6969696969697	-62.50194618399113\\
272.62626262626264	-73.58276667436415\\
275.5555555555556	-86.59588932735272\\
278.48484848484856	-101.80943646216848\\
281.4141414141415	-119.52101643999528\\
284.34343434343447	-140.05765442802496\\
287.2727272727274	-163.77822409894915\\
290.2020202020204	-191.07524151529435\\
293.13131313131333	-222.37706539947789\\
296.0606060606063	-258.15015950985907\\
298.98989898989925	-298.90138665523256\\
301.9191919191922	-345.18049342595407\\
304.84848484848516	-397.58259705230466\\
307.7777777777781	-456.7508086548094\\
310.70707070707107	-523.3789264540079\\
313.636363636364	-598.2142296657111\\
316.565656565657	-682.060366205932\\
319.49494949494994	-775.7803378615279\\
322.4242424242429	-880.2995838878311\\
325.35353535353585	-996.6091645453872\\
328.2828282828288	-1125.7690460879694\\
331.21212121212176	-1268.9114887140663\\
334.1414141414147	-1427.2445389940988\\
337.07070707070767	-1602.0556282856335\\
340.0	-1794.7152786489055\\
} node[above,pos=0.22] {9000 m};
\end{axis}
\end{tikzpicture}%
