%TotalThrustAndDragVsSpeed_Phi075_CRUISE
\begin{tikzpicture}

\begin{axis}[
width=\figurewidth,
height=\figureheight,
scaled ticks=false, tick label style={/pgf/number format/fixed},
xmin=46.0,
xmax=256.8369602209476,
xlabel={Speed (m/s)},
xmajorgrids,
ymin=0.0,
ymax=124000.0,
ylabel={Total Thrust, Drag (N)},
ymajorgrids,
legend style={at={(1.03,0.5)},anchor=west,draw=black,fill=white,legend cell align=left}
]

\addplot [
color=black,
solid
]
table[row sep=crcr]{
50.0	37697.366146324865\\
52.92929292929293	34354.784454762936\\
55.858585858585855	31603.476454295716\\
58.78787878787878	29332.759123756685\\
61.71717171717171	27457.576102382685\\
64.64646464646464	25911.69383325175\\
67.57575757575756	24642.915591549587\\
70.50505050505049	23609.65732908479\\
73.43434343434342	22778.459834651265\\
76.36363636363635	22122.155637546886\\
79.29292929292927	21618.500880632102\\
82.2222222222222	21249.142100139554\\
85.15151515151513	20998.827392246378\\
88.08080808080805	20854.79806892364\\
91.01010101010098	20806.31510424509\\
93.93939393939391	20844.287289020915\\
96.86868686868684	20960.976873485622\\
99.79797979797976	21149.764778415683\\
102.72727272727269	21404.961985812166\\
105.65656565656562	21721.657013069947\\
108.58585858585855	22095.59179153695\\
111.51515151515147	22523.060061129843\\
114.4444444444444	23000.82373117245\\
117.37373737373733	23526.04366640195\\
120.30303030303025	24096.22212333739\\
123.23232323232318	24709.15464855646\\
126.16161616161611	25362.88970227132\\
129.09090909090904	26055.69462111106\\
132.02020202020196	26786.026807653332\\
134.9494949494949	27552.509249151582\\
137.87878787878782	28353.909637651108\\
140.80808080808075	29189.122498499906\\
143.73737373737367	30057.153841886986\\
146.6666666666666	30957.107938393016\\
149.59595959595953	31888.175889151837\\
152.52525252525245	32849.62571759727\\
155.45454545454538	33840.79375562593\\
158.3838383838383	34861.07713446143\\
161.31313131313124	35909.92722122339\\
164.24242424242416	36986.84386749287\\
167.1717171717171	38091.370357063905\\
170.10101010101002	39223.08895740067\\
173.03030303030295	40381.61699374246\\
175.95959595959587	41566.603376839485\\
178.8888888888888	42777.72552538957\\
181.81818181818173	44014.686632719735\\
184.74747474747466	45277.21323439903\\
187.67676767676758	46565.05303950483\\
190.6060606060605	47877.97299338045\\
193.53535353535344	49215.757544069354\\
196.46464646464636	50578.20708831543\\
199.3939393939393	51965.13657618279\\
202.32323232323222	53376.37425605755\\
205.25252525252515	54811.760544120254\\
208.18181818181807	56271.147004377424\\
211.111111111111	57754.39542706614\\
214.04040404040393	59261.37699473605\\
216.96969696969686	60791.97152660369\\
219.89898989898978	62346.06679289417\\
222.8282828282827	63923.55789185901\\
225.75757575757564	65524.34668300644\\
228.68686868686856	67148.341270822\\
231.6161616161615	68795.45553390302\\
234.54545454545442	70465.60869499855\\
237.47474747474735	72158.72492794336\\
240.40404040404027	73874.99170164658\\
243.3333333333332	75618.31588854645\\
246.26262626262613	77400.75695154244\\
249.19191919191906	79243.97516165194\\
252.12121212121198	81180.3430990994\\
255.0505050505049	83254.09621110384\\
257.97979797979787	85522.5224100358\\
260.9090909090908	88057.19069497696\\
263.8383838383838	90945.21878141449\\
266.76767676767673	94290.57972531454\\
269.6969696969697	98215.44752916985\\
272.62626262626264	102861.58171882136\\
275.5555555555556	108391.75088093408\\
278.48484848484856	114991.19515196995\\
281.4141414141415	122869.12765036852\\
284.34343434343447	132260.2748444209\\
287.2727272727274	143426.4558490197\\
290.2020202020204	156658.20064509514\\
293.13131313131333	172276.40721611137\\
296.0606060606063	190634.0375965048\\
298.98989898989925	212117.85282740465\\
301.9191919191922	237150.18681538955\\
304.84848484848516	266190.75909040944\\
307.7777777777781	299738.52645933477\\
310.70707070707107	338333.5735519089\\
313.636363636364	382559.04225614486\\
316.565656565657	433043.10004047543\\
319.49494949494994	490460.94716017565\\
322.4242424242429	555536.8627457945\\
325.35353535353585	629046.2897715181\\
328.2828282828288	711817.9589015675\\
331.21212121212176	804736.051212853\\
334.1414141414147	908742.3997923171\\
337.07070707070767	1024838.7302074417\\
340.0	1154088.9398485713\\
} node[above,pos=0.1] {altitude = 0 m};

\addplot [
color=black,
densely dashed
]
table[row sep=crcr]{
50.0	56479.9558408415\\
52.92929292929293	50854.61054781954\\
55.858585858585855	46141.15763667737\\
58.78787878787878	42165.10545915352\\
61.71717171717171	38792.36276594648\\
64.64646464646464	35918.5124351189\\
67.57575757575756	33461.26639348038\\
70.50505050505049	31355.067439629718\\
73.43434343434342	29547.16716779207\\
76.36363636363635	27994.736093445314\\
79.29292929292927	26662.706802860954\\
82.2222222222222	25522.145082730323\\
85.15151515151513	24549.006325225364\\
88.08080808080805	23723.176474184987\\
91.01010101010098	23027.725468296783\\
93.93939393939391	22448.321027329275\\
96.86868686868684	21972.764598187496\\
99.79797979797976	21590.62121052536\\
102.72727272727269	21292.922134386277\\
105.65656565656562	21071.924423416367\\
108.58585858585855	20920.91523756411\\
111.51515151515147	20834.051662315516\\
114.4444444444444	20806.228851657615\\
117.37373737373733	20832.970912301385\\
120.30303030303025	20910.340154686743\\
123.23232323232318	21034.861260674385\\
126.16161616161611	21203.457630162142\\
129.09090909090904	21413.397721452948\\
132.02020202020196	21662.24963158654\\
134.9494949494949	21947.842501642608\\
137.87878787878782	22268.233599629235\\
140.80808080808075	22621.680146101986\\
143.73737373737367	23006.61511733267\\
146.6666666666666	23421.626396981064\\
149.59595959595953	23865.438756968382\\
152.52525252525245	24336.898237128287\\
155.45454545454538	24834.95856550287\\
158.3838383838383	25358.669320199366\\
161.31313131313124	25907.16558214906\\
164.24242424242416	26479.658867977774\\
167.1717171717171	27075.42916514222\\
170.10101010101002	27693.817918807705\\
173.03030303030295	28334.22184267935\\
175.95959595959587	28996.087444981877\\
178.8888888888888	29678.90617668469\\
181.81818181818173	30382.2101224288\\
184.74747474747466	31105.56816587141\\
187.67676767676758	31848.58257067979\\
190.6060606060605	32610.885926471125\\
193.53535353535344	33392.13841584808\\
196.46464646464636	34192.02536452019\\
199.3939393939393	35010.25504148848\\
202.32323232323222	35846.556680542606\\
205.25252525252515	36700.67869798524\\
208.18181818181807	37572.38708465319\\
211.111111111111	38461.463953023354\\
214.04040404040393	39367.70622254184\\
216.96969696969686	40290.9244283497\\
219.89898989898978	41230.941640343364\\
222.8282828282827	42187.59249902124\\
225.75757575757564	43161.015462730094\\
228.68686868686856	44154.2148901686\\
231.6161616161615	45175.58093439927\\
234.54545454545442	46239.78826589253\\
237.47474747474735	47368.60020893148\\
240.40404040404027	48591.70389225234\\
243.3333333333332	49947.57636711737\\
246.26262626262613	51484.38165090563\\
249.19191919191906	53260.898658644044\\
252.12121212121198	55347.47998875108\\
255.0505050505049	57827.04153268829\\
257.97979797979787	60796.08288126125\\
260.9090909090908	64365.738503026405\\
263.8383838383838	68662.85967268061\\
266.76767676767673	73831.12712947451\\
269.6969696969697	80032.19444762137\\
272.62626262626264	87446.86210240558\\
275.5555555555556	96276.28221724447\\
278.48484848484856	106743.19397834485\\
281.4141414141415	119093.18970484808\\
284.34343434343447	133596.01156347283\\
287.2727272727274	150546.87891768216\\
290.2020202020204	170267.84630229734\\
293.13131313131333	193109.19201531267\\
296.0606060606063	219450.8373193945\\
298.98989898989925	249703.7962462194\\
301.9191919191922	284311.6559974016\\
304.84848484848516	323752.0879363185\\
307.7777777777781	368538.38916562335\\
310.70707070707107	419221.05468567973\\
313.636363636364	476389.38012957847\\
316.565656565657	540673.0950707353\\
319.49494949494994	612744.0268994229\\
322.4242424242429	693317.7952649003\\
325.35353535353585	783155.5370800417\\
328.2828282828288	883065.6620856645\\
331.21212121212176	993905.6389719731\\
334.1414141414147	1116583.8120546981\\
337.07070707070767	1252061.2485037784\\
340.0	1401353.6161225268\\
} node[above,pos=0.16] {4500 m};

\addplot [
color=black,
dashdotted
]
table[row sep=crcr]{
50.0	91900.4413404527\\
52.92929292929293	82240.84124070861\\
55.858585858585855	74129.85712349805\\
58.78787878787878	67231.53497412788\\
61.71717171717171	61322.43438695258\\
64.64646464646464	56228.839722245844\\
67.57575757575756	51813.850776181906\\
70.50505050505049	47968.401995441825\\
73.43434343434342	44604.73743652027\\
76.36363636363635	41651.60296824735\\
79.29292929292927	39050.657984251564\\
82.2222222222222	36753.765500084046\\
85.15151515151513	34720.923221549\\
88.08080808080805	32918.667995586016\\
91.01010101010098	31318.833786042007\\
93.93939393939391	29897.576407375822\\
96.86868686868684	28634.601492003727\\
99.79797979797976	27512.548692163236\\
102.72727272727269	26516.49700033148\\
105.65656565656562	25633.56470846794\\
108.58585858585855	24852.58386554796\\
111.51515151515147	24163.833789619835\\
114.4444444444444	23558.821701200734\\
117.37373737373733	23030.101190625046\\
120.30303030303025	22571.121241658264\\
123.23232323232318	22176.10007155612\\
126.16161616161611	21839.919232835946\\
129.09090909090904	21558.03434135324\\
132.02020202020196	21326.399512959335\\
134.9494949494949	21141.403154659725\\
137.87878787878782	20999.813201400993\\
140.80808080808075	20898.73024319677\\
143.73737373737367	20835.54726958404\\
146.6666666666666	20807.91498488354\\
149.59595959595953	20813.711830318367\\
152.52525252525245	20851.017996907056\\
155.45454545454538	20918.09283331655\\
158.3838383838383	21013.355151097592\\
161.31313131313124	21135.366010289505\\
164.24242424242416	21282.813634708313\\
167.1717171717171	21454.500161041466\\
170.10101010101002	21649.32997132634\\
173.03030303030295	21866.299396215298\\
175.95959595959587	22104.487608012263\\
178.8888888888888	22363.048548920004\\
181.81818181818173	22641.20376216421\\
184.74747474747466	22938.236012392117\\
187.67676767676758	23253.48359757443\\
190.6060606060605	23586.335268056762\\
193.53535353535344	23936.225679808646\\
196.46464646464636	24302.63131863374\\
199.3939393939393	24685.066840402924\\
202.32323232323222	25083.081779478216\\
205.25252525252515	25496.26120776705\\
208.18181818181807	25924.645274543545\\
211.111111111111	26370.344440169156\\
214.04040404040393	26838.523295116636\\
216.96969696969686	27337.91979765472\\
219.89898989898978	27881.37966554468\\
222.8282828282827	28486.41536690141\\
225.75757575757564	29175.78958398054\\
228.68686868686856	29978.123036958026\\
231.6161616161615	30928.526566578723\\
234.54545454545442	32069.25738504273\\
237.47474747474735	33450.39941382673\\
240.40404040404027	35130.56763543908\\
243.3333333333332	37177.63639350168\\
246.26262626262613	39669.49158214244\\
249.19191919191906	42694.806671563725\\
252.12121212121198	46353.842521904066\\
255.0505050505049	50759.270942204435\\
257.97979797979787	56037.02195549137\\
260.9090909090908	62327.154734748176\\
263.8383838383838	69784.75217791731\\
266.76767676767673	78580.83909309986\\
269.6969696969697	88903.32396783211\\
272.62626262626264	100957.96429875791\\
275.5555555555556	114969.3554602101\\
278.48484848484856	131181.94309218935\\
281.4141414141415	149861.05899000276\\
284.34343434343447	171293.9804794393\\
287.2727272727274	195791.01326279022\\
290.2020202020204	223686.59772234838\\
293.13131313131333	255340.43866918542\\
296.0606060606063	291138.6585260865\\
298.98989898989925	331494.9739344859\\
301.9191919191922	376851.89577611495\\
304.84848484848516	427681.9526008877\\
307.7777777777781	484488.9374532589\\
310.70707070707107	547809.1780899304\\
313.636363636364	618212.8305824187\\
316.565656565657	696305.1962984866\\
319.49494949494994	782728.0622569749\\
322.4242424242429	878161.0648510011\\
325.35353535353585	983323.0769348993\\
328.2828282828288	1098973.6182706603\\
331.21212121212176	1225914.2893299595\\
334.1414141414147	1364990.2284481777\\
337.07070707070767	1517091.592327098\\
340.0	1683155.0598832238\\
} node[above,pos=0.22] {9000 m};

\addplot [
color=black,
dashed
]
table[row sep=crcr]{
50.0	27773.343153555135\\
52.92929292929293	27572.43519315099\\
55.858585858585855	27171.854859428564\\
58.78787878787878	26979.034709482366\\
61.71717171717171	26593.181347018064\\
64.64646464646464	26415.033643508814\\
67.57575757575756	26061.59490539189\\
70.50505050505049	25904.67220784344\\
73.43434343434342	25596.281527409847\\
76.36363636363635	25461.59764536743\\
79.29292929292927	25192.085733569416\\
82.2222222222222	25070.66427347876\\
85.15151515151513	24814.07776280061\\
88.08080808080805	24693.6935375096\\
91.01010101010098	24431.711623972013\\
93.93939393939391	24307.65349735693\\
96.86868686868684	24041.48549600118\\
99.79797979797976	23914.701449388747\\
102.72727272727269	23649.468112852497\\
105.65656565656562	23520.44229905494\\
108.58585858585855	23257.446545407347\\
111.51515151515147	23125.376452133987\\
114.4444444444444	22864.31560086166\\
117.37373737373733	22728.813011666905\\
120.30303030303025	22471.071918311285\\
123.23232323232318	22337.22099424652\\
126.16161616161611	22095.357106757343\\
129.09090909090904	21972.88935661212\\
132.02020202020196	21764.13690302071\\
134.9494949494949	21656.20962461328\\
137.87878787878782	21481.993088138548\\
140.80808080808075	21381.714853532507\\
143.73737373737367	21228.12553459762\\
146.6666666666666	21126.719828133988\\
149.59595959595953	20980.53335724052\\
152.52525252525245	20873.766849292297\\
155.45454545454538	20730.338621793875\\
158.3838383838383	20617.84713977458\\
161.31313131313124	20477.98936147048\\
164.24242424242416	20361.07744921591\\
167.1717171717171	20227.296774397735\\
170.10101010101002	20108.576947290952\\
173.03030303030295	19984.236796659425\\
175.95959595959587	19863.18078882183\\
178.8888888888888	19747.47678785734\\
181.81818181818173	19618.649775971215\\
184.74747474747466	19505.961572627493\\
187.67676767676758	19372.27991937418\\
190.6060606060605	19264.76038937077\\
193.53535353535344	19136.929578103933\\
196.46464646464636	19041.911679111872\\
199.3939393939393	18923.11623254069\\
202.32323232323222	18840.96008359537\\
205.25252525252515	18727.066652651167\\
208.18181818181807	18653.298467203662\\
211.111111111111	18540.21260029747\\
214.04040404040393	18471.1674563003\\
216.96969696969686	18355.651450305686\\
219.89898989898978	18289.033569428735\\
222.8282828282827	18172.97932452015\\
225.75757575757564	18109.641733331016\\
228.68686868686856	17997.168253989374\\
231.6161616161615	17938.045851992065\\
234.54545454545442	17824.488256518263\\
237.47474747474735	17766.598217466053\\
240.40404040404027	17648.62355795803\\
243.3333333333332	17591.339648480447\\
246.26262626262613	17476.852886008543\\
249.19191919191906	17423.55793720479\\
252.12121212121198	17317.857492488292\\
255.0505050505049	17268.43752284433\\
257.97979797979787	17163.589118709177\\
260.9090909090908	17112.884169145025\\
263.8383838383838	16997.76197783707\\
266.76767676767673	16942.455206644194\\
269.6969696969697	16817.88930951465\\
272.62626262626264	16761.289998816806\\
275.5555555555556	16640.93025032291\\
278.48484848484856	16587.76318891304\\
281.4141414141415	16478.34442425478\\
284.34343434343447	16426.015142822725\\
287.2727272727274	16315.532018062968\\
290.2020202020204	16259.301486856302\\
293.13131313131333	16141.594483298166\\
296.0606060606063	16091.623731170821\\
298.98989898989925	15997.676035008008\\
301.9191919191922	15975.023321616754\\
304.84848484848516	15943.920305536649\\
307.7777777777781	15941.673996911879\\
310.70707070707107	15942.626961107644\\
313.636363636364	15944.320643069907\\
316.565656565657	15947.581754454888\\
319.49494949494994	15948.16488742808\\
322.4242424242429	15948.899686519406\\
325.35353535353585	15948.855728205477\\
328.2828282828288	15948.728832530393\\
331.21212121212176	15948.658772869294\\
334.1414141414147	15948.557118966899\\
337.07070707070767	15948.540483153258\\
340.0	15948.520111503873\\
} node[above,pos=0.28] {0 m};

\addplot [
color=black,
dotted
]
table[row sep=crcr]{
50.0	20024.058096567795\\
52.92929292929293	19785.9049392097\\
55.858585858585855	19665.46167725126\\
58.78787878787878	19430.94817732264\\
61.71717171717171	19317.29829320553\\
64.64646464646464	19089.284848681902\\
67.57575757575756	18969.09165249543\\
70.50505050505049	18754.19599901139\\
73.43434343434342	18621.297125485267\\
76.36363636363635	18435.761522928493\\
79.29292929292927	18291.249037467176\\
82.2222222222222	18149.13114684295\\
85.15151515151513	17990.364226592665\\
88.08080808080805	17880.096057827715\\
91.01010101010098	17710.219183314835\\
93.93939393939391	17617.1789914645\\
96.86868686868684	17442.222016037773\\
99.79797979797976	17357.09074467381\\
102.72727272727269	17185.563202401194\\
105.65656565656562	17103.13956903759\\
108.58585858585855	16947.322025073416\\
111.51515151515147	16864.867049243454\\
114.4444444444444	16734.544134268122\\
117.37373737373733	16646.02008758666\\
120.30303030303025	16542.043912447596\\
123.23232323232318	16440.317571548025\\
126.16161616161611	16357.324644323533\\
129.09090909090904	16242.513731805444\\
132.02020202020196	16172.788781248615\\
134.9494949494949	16050.001563853039\\
137.87878787878782	15987.986567703076\\
140.80808080808075	15866.559061074851\\
143.73737373737367	15809.543382233918\\
146.6666666666666	15698.11319636926\\
149.59595959595953	15641.666657448339\\
152.52525252525245	15542.423104046571\\
155.45454545454538	15481.613820394123\\
158.3838383838383	15397.479724567173\\
161.31313131313124	15329.978228459182\\
164.24242424242416	15264.189307715991\\
167.1717171717171	15187.256653776289\\
170.10101010101002	15134.154363882839\\
173.03030303030295	15050.430711055968\\
175.95959595959587	15004.957493768443\\
178.8888888888888	14920.236720172668\\
181.81818181818173	14879.613016068428\\
184.74747474747466	14799.078295513797\\
187.67676767676758	14761.22160115452\\
190.6060606060605	14690.67817655655\\
193.53535353535344	14654.496358324222\\
196.46464646464636	14597.987240711485\\
199.3939393939393	14558.599223163714\\
202.32323232323222	14512.73591985444\\
205.25252525252515	14460.031494938865\\
208.18181818181807	14417.250941850389\\
211.111111111111	14351.266303700984\\
214.04040404040393	14312.29514945844\\
216.96969696969686	14251.953241024114\\
219.89898989898978	14224.582408874934\\
222.8282828282827	14182.57847754833\\
225.75757575757564	14165.458411947631\\
228.68686868686856	14135.996218300166\\
231.6161616161615	14120.368942218029\\
234.54545454545442	14092.703031084438\\
237.47474747474735	14071.567856227626\\
240.40404040404027	14042.142520720612\\
243.3333333333332	14014.538939069711\\
246.26262626262613	13987.883471221998\\
249.19191919191906	13958.062223575424\\
252.12121212121198	13937.924261780157\\
255.0505050505049	13911.033254417984\\
257.97979797979787	13897.093219667127\\
260.9090909090908	13874.67748659995\\
263.8383838383838	13864.357060196337\\
266.76767676767673	13844.890888071131\\
269.6969696969697	13835.195239747405\\
272.62626262626264	13816.703193809031\\
275.5555555555556	13806.981193020227\\
278.48484848484856	13791.83829770619\\
281.4141414141415	13785.332237777398\\
284.34343434343447	13777.957239940944\\
287.2727272727274	13776.287549120723\\
290.2020202020204	13775.011719528531\\
293.13131313131333	13775.39483999454\\
296.0606060606063	13775.617064540544\\
298.98989898989925	13775.937289505526\\
301.9191919191922	13776.050724022061\\
304.84848484848516	13776.094320245893\\
307.7777777777781	13776.09694581269\\
310.70707070707107	13776.075636290589\\
313.636363636364	13776.069021914123\\
316.565656565657	13776.059491096303\\
319.49494949494994	13776.058520589264\\
322.4242424242429	13776.057673377349\\
325.35353535353585	13776.057670246777\\
328.2828282828288	13776.057670246777\\
331.21212121212176	13776.057670246777\\
334.1414141414147	13776.057670246777\\
337.07070707070767	13776.057670246777\\
340.0	13776.057670246777\\
} node[above,pos=0.34] {4500 m};

\addplot [
color=black,
loosely dashed
]
table[row sep=crcr]{
50.0	13108.884405964574\\
52.92929292929293	13040.76602488691\\
55.858585858585855	12914.516647944623\\
58.78787878787878	12843.958133381992\\
61.71717171717171	12743.933009199307\\
64.64646464646464	12656.892004620562\\
67.57575757575756	12588.058713873024\\
70.50505050505049	12487.504523836807\\
73.43434343434342	12435.814642300073\\
76.36363636363635	12343.925601327031\\
79.29292929292927	12296.880279092129\\
82.2222222222222	12226.84678543008\\
85.15151515151513	12168.742683820645\\
88.08080808080805	12118.4720397598\\
91.01010101010098	12038.270247297356\\
93.93939393939391	11993.436033276006\\
96.86868686868684	11906.801484750395\\
99.79797979797976	11863.503679365162\\
102.72727272727269	11795.714624276425\\
105.65656565656562	11751.382251729681\\
108.58585858585855	11710.338502068282\\
111.51515151515147	11658.291513995555\\
114.4444444444444	11628.719024788248\\
117.37373737373733	11574.111839568555\\
120.30303030303025	11546.34207280293\\
123.23232323232318	11500.355142135475\\
126.16161616161611	11467.041125237403\\
129.09090909090904	11433.274370794401\\
132.02020202020196	11382.113098755397\\
134.9494949494949	11351.331331117146\\
137.87878787878782	11293.36076345779\\
140.80808080808075	11267.705387213817\\
143.73737373737367	11226.79735084099\\
146.6666666666666	11205.094375744533\\
149.59595959595953	11181.692570310475\\
152.52525252525245	11152.655488399796\\
155.45454545454538	11134.337601592759\\
158.3838383838383	11100.841148618245\\
161.31313131313124	11083.268677344502\\
164.24242424242416	11051.31057455223\\
167.1717171717171	11028.078963867272\\
170.10101010101002	11000.357222787105\\
173.03030303030295	10969.08453412987\\
175.95959595959587	10948.841818937042\\
178.8888888888888	10918.42081899584\\
181.81818181818173	10904.524823671529\\
184.74747474747466	10881.595393553527\\
187.67676767676758	10870.870212396358\\
190.6060606060605	10857.618750790267\\
193.53535353535344	10846.54729745011\\
196.46464646464636	10838.65478829071\\
199.3939393939393	10825.30103982277\\
202.32323232323222	10818.09848090957\\
205.25252525252515	10804.17258599225\\
208.18181818181807	10795.138574564515\\
211.111111111111	10782.505966789166\\
214.04040404040393	10769.109212487087\\
216.96969696969686	10759.02074704156\\
219.89898989898978	10745.554757244294\\
222.8282828282827	10739.925821486166\\
225.75757575757564	10732.875839001732\\
228.68686868686856	10729.25821869418\\
231.6161616161615	10724.030075905577\\
234.54545454545442	10712.674583916752\\
237.47474747474735	10702.800086750389\\
240.40404040404027	10679.32727057177\\
243.3333333333332	10666.5021105595\\
246.26262626262613	10642.059796314372\\
249.19191919191906	10631.656846149208\\
252.12121212121198	10616.61249709997\\
255.0505050505049	10610.921943874568\\
257.97979797979787	10606.06745648814\\
260.9090909090908	10604.34513752763\\
263.8383838383838	10603.68861250252\\
266.76767676767673	10603.611687438632\\
269.6969696969697	10603.623888560644\\
272.62626262626264	10603.674237495083\\
275.5555555555556	10603.689889160481\\
278.48484848484856	10603.704163570288\\
281.4141414141415	10603.704251029973\\
284.34343434343447	10603.704005689082\\
287.2727272727274	10603.70216320074\\
290.2020202020204	10603.701673856453\\
293.13131313131333	10603.70119523543\\
296.0606060606063	10603.701165536317\\
298.98989898989925	10603.701147276068\\
301.9191919191922	10603.701147276068\\
304.84848484848516	10603.701147276068\\
307.7777777777781	10603.701147276068\\
310.70707070707107	10603.701147276068\\
313.636363636364	10603.701147276068\\
316.565656565657	10603.701147276068\\
319.49494949494994	10603.701147276068\\
322.4242424242429	10603.701147276068\\
325.35353535353585	10603.701147276068\\
328.2828282828288	10603.701147276068\\
331.21212121212176	10603.701147276068\\
334.1414141414147	10603.701147276068\\
337.07070707070767	10603.701147276068\\
340.0	10603.701147276068\\
} node[above,pos=0.4] {9000 m};
\end{axis}
\end{tikzpicture}%
