%TotalThrustAndDragVsSpeed_Phi100_CRUISE
\begin{tikzpicture}

\begin{axis}[
width=\figurewidth,
height=\figureheight,
scaled ticks=false, tick label style={/pgf/number format/fixed},
xmin=46.0,
xmax=256.8369602209476,
xlabel={Speed (m/s)},
xmajorgrids,
ymin=0.0,
ymax=124000.0,
ylabel={Total Thrust, Drag (N)},
ymajorgrids,
legend style={at={(1.03,0.5)},anchor=west,draw=black,fill=white,legend cell align=left}
]

\addplot [
color=black,
solid
]
table[row sep=crcr]{
50.0	37697.366146324865\\
52.92929292929293	34354.784454762936\\
55.858585858585855	31603.476454295716\\
58.78787878787878	29332.759123756685\\
61.71717171717171	27457.576102382685\\
64.64646464646464	25911.69383325175\\
67.57575757575756	24642.915591549587\\
70.50505050505049	23609.65732908479\\
73.43434343434342	22778.459834651265\\
76.36363636363635	22122.155637546886\\
79.29292929292927	21618.500880632102\\
82.2222222222222	21249.142100139554\\
85.15151515151513	20998.827392246378\\
88.08080808080805	20854.79806892364\\
91.01010101010098	20806.31510424509\\
93.93939393939391	20844.287289020915\\
96.86868686868684	20960.976873485622\\
99.79797979797976	21149.764778415683\\
102.72727272727269	21404.961985812166\\
105.65656565656562	21721.657013069947\\
108.58585858585855	22095.59179153695\\
111.51515151515147	22523.060061129843\\
114.4444444444444	23000.82373117245\\
117.37373737373733	23526.04366640195\\
120.30303030303025	24096.22212333739\\
123.23232323232318	24709.15464855646\\
126.16161616161611	25362.88970227132\\
129.09090909090904	26055.69462111106\\
132.02020202020196	26786.026807653332\\
134.9494949494949	27552.509249151582\\
137.87878787878782	28353.909637651108\\
140.80808080808075	29189.122498499906\\
143.73737373737367	30057.153841886986\\
146.6666666666666	30957.107938393016\\
149.59595959595953	31888.175889151837\\
152.52525252525245	32849.62571759727\\
155.45454545454538	33840.79375562593\\
158.3838383838383	34861.07713446143\\
161.31313131313124	35909.92722122339\\
164.24242424242416	36986.84386749287\\
167.1717171717171	38091.370357063905\\
170.10101010101002	39223.08895740067\\
173.03030303030295	40381.61699374246\\
175.95959595959587	41566.603376839485\\
178.8888888888888	42777.72552538957\\
181.81818181818173	44014.686632719735\\
184.74747474747466	45277.21323439903\\
187.67676767676758	46565.05303950483\\
190.6060606060605	47877.97299338045\\
193.53535353535344	49215.757544069354\\
196.46464646464636	50578.20708831543\\
199.3939393939393	51965.13657618279\\
202.32323232323222	53376.37425605755\\
205.25252525252515	54811.760544120254\\
208.18181818181807	56271.147004377424\\
211.111111111111	57754.39542706614\\
214.04040404040393	59261.37699473605\\
216.96969696969686	60791.97152660369\\
219.89898989898978	62346.06679289417\\
222.8282828282827	63923.55789185901\\
225.75757575757564	65524.34668300644\\
228.68686868686856	67148.341270822\\
231.6161616161615	68795.45553390302\\
234.54545454545442	70465.60869499855\\
237.47474747474735	72158.72492794336\\
240.40404040404027	73874.99170164658\\
243.3333333333332	75618.31588854645\\
246.26262626262613	77400.75695154244\\
249.19191919191906	79243.97516165194\\
252.12121212121198	81180.3430990994\\
255.0505050505049	83254.09621110384\\
257.97979797979787	85522.5224100358\\
260.9090909090908	88057.19069497696\\
263.8383838383838	90945.21878141449\\
266.76767676767673	94290.57972531454\\
269.6969696969697	98215.44752916985\\
272.62626262626264	102861.58171882136\\
275.5555555555556	108391.75088093408\\
278.48484848484856	114991.19515196995\\
281.4141414141415	122869.12765036852\\
284.34343434343447	132260.2748444209\\
287.2727272727274	143426.4558490197\\
290.2020202020204	156658.20064509514\\
293.13131313131333	172276.40721611137\\
296.0606060606063	190634.0375965048\\
298.98989898989925	212117.85282740465\\
301.9191919191922	237150.18681538955\\
304.84848484848516	266190.75909040944\\
307.7777777777781	299738.52645933477\\
310.70707070707107	338333.5735519089\\
313.636363636364	382559.04225614486\\
316.565656565657	433043.10004047543\\
319.49494949494994	490460.94716017565\\
322.4242424242429	555536.8627457945\\
325.35353535353585	629046.2897715181\\
328.2828282828288	711817.9589015675\\
331.21212121212176	804736.051212853\\
334.1414141414147	908742.3997923171\\
337.07070707070767	1024838.7302074417\\
340.0	1154088.9398485713\\
} node[above,pos=0.1] {altitude = 0 m};

\addplot [
color=black,
densely dashed
]
table[row sep=crcr]{
50.0	56479.9558408415\\
52.92929292929293	50854.61054781954\\
55.858585858585855	46141.15763667737\\
58.78787878787878	42165.10545915352\\
61.71717171717171	38792.36276594648\\
64.64646464646464	35918.5124351189\\
67.57575757575756	33461.26639348038\\
70.50505050505049	31355.067439629718\\
73.43434343434342	29547.16716779207\\
76.36363636363635	27994.736093445314\\
79.29292929292927	26662.706802860954\\
82.2222222222222	25522.145082730323\\
85.15151515151513	24549.006325225364\\
88.08080808080805	23723.176474184987\\
91.01010101010098	23027.725468296783\\
93.93939393939391	22448.321027329275\\
96.86868686868684	21972.764598187496\\
99.79797979797976	21590.62121052536\\
102.72727272727269	21292.922134386277\\
105.65656565656562	21071.924423416367\\
108.58585858585855	20920.91523756411\\
111.51515151515147	20834.051662315516\\
114.4444444444444	20806.228851657615\\
117.37373737373733	20832.970912301385\\
120.30303030303025	20910.340154686743\\
123.23232323232318	21034.861260674385\\
126.16161616161611	21203.457630162142\\
129.09090909090904	21413.397721452948\\
132.02020202020196	21662.24963158654\\
134.9494949494949	21947.842501642608\\
137.87878787878782	22268.233599629235\\
140.80808080808075	22621.680146101986\\
143.73737373737367	23006.61511733267\\
146.6666666666666	23421.626396981064\\
149.59595959595953	23865.438756968382\\
152.52525252525245	24336.898237128287\\
155.45454545454538	24834.95856550287\\
158.3838383838383	25358.669320199366\\
161.31313131313124	25907.16558214906\\
164.24242424242416	26479.658867977774\\
167.1717171717171	27075.42916514222\\
170.10101010101002	27693.817918807705\\
173.03030303030295	28334.22184267935\\
175.95959595959587	28996.087444981877\\
178.8888888888888	29678.90617668469\\
181.81818181818173	30382.2101224288\\
184.74747474747466	31105.56816587141\\
187.67676767676758	31848.58257067979\\
190.6060606060605	32610.885926471125\\
193.53535353535344	33392.13841584808\\
196.46464646464636	34192.02536452019\\
199.3939393939393	35010.25504148848\\
202.32323232323222	35846.556680542606\\
205.25252525252515	36700.67869798524\\
208.18181818181807	37572.38708465319\\
211.111111111111	38461.463953023354\\
214.04040404040393	39367.70622254184\\
216.96969696969686	40290.9244283497\\
219.89898989898978	41230.941640343364\\
222.8282828282827	42187.59249902124\\
225.75757575757564	43161.015462730094\\
228.68686868686856	44154.2148901686\\
231.6161616161615	45175.58093439927\\
234.54545454545442	46239.78826589253\\
237.47474747474735	47368.60020893148\\
240.40404040404027	48591.70389225234\\
243.3333333333332	49947.57636711737\\
246.26262626262613	51484.38165090563\\
249.19191919191906	53260.898658644044\\
252.12121212121198	55347.47998875108\\
255.0505050505049	57827.04153268829\\
257.97979797979787	60796.08288126125\\
260.9090909090908	64365.738503026405\\
263.8383838383838	68662.85967268061\\
266.76767676767673	73831.12712947451\\
269.6969696969697	80032.19444762137\\
272.62626262626264	87446.86210240558\\
275.5555555555556	96276.28221724447\\
278.48484848484856	106743.19397834485\\
281.4141414141415	119093.18970484808\\
284.34343434343447	133596.01156347283\\
287.2727272727274	150546.87891768216\\
290.2020202020204	170267.84630229734\\
293.13131313131333	193109.19201531267\\
296.0606060606063	219450.8373193945\\
298.98989898989925	249703.7962462194\\
301.9191919191922	284311.6559974016\\
304.84848484848516	323752.0879363185\\
307.7777777777781	368538.38916562335\\
310.70707070707107	419221.05468567973\\
313.636363636364	476389.38012957847\\
316.565656565657	540673.0950707353\\
319.49494949494994	612744.0268994229\\
322.4242424242429	693317.7952649003\\
325.35353535353585	783155.5370800417\\
328.2828282828288	883065.6620856645\\
331.21212121212176	993905.6389719731\\
334.1414141414147	1116583.8120546981\\
337.07070707070767	1252061.2485037784\\
340.0	1401353.6161225268\\
} node[above,pos=0.16] {4500 m};

\addplot [
color=black,
dashdotted
]
table[row sep=crcr]{
50.0	91900.4413404527\\
52.92929292929293	82240.84124070861\\
55.858585858585855	74129.85712349805\\
58.78787878787878	67231.53497412788\\
61.71717171717171	61322.43438695258\\
64.64646464646464	56228.839722245844\\
67.57575757575756	51813.850776181906\\
70.50505050505049	47968.401995441825\\
73.43434343434342	44604.73743652027\\
76.36363636363635	41651.60296824735\\
79.29292929292927	39050.657984251564\\
82.2222222222222	36753.765500084046\\
85.15151515151513	34720.923221549\\
88.08080808080805	32918.667995586016\\
91.01010101010098	31318.833786042007\\
93.93939393939391	29897.576407375822\\
96.86868686868684	28634.601492003727\\
99.79797979797976	27512.548692163236\\
102.72727272727269	26516.49700033148\\
105.65656565656562	25633.56470846794\\
108.58585858585855	24852.58386554796\\
111.51515151515147	24163.833789619835\\
114.4444444444444	23558.821701200734\\
117.37373737373733	23030.101190625046\\
120.30303030303025	22571.121241658264\\
123.23232323232318	22176.10007155612\\
126.16161616161611	21839.919232835946\\
129.09090909090904	21558.03434135324\\
132.02020202020196	21326.399512959335\\
134.9494949494949	21141.403154659725\\
137.87878787878782	20999.813201400993\\
140.80808080808075	20898.73024319677\\
143.73737373737367	20835.54726958404\\
146.6666666666666	20807.91498488354\\
149.59595959595953	20813.711830318367\\
152.52525252525245	20851.017996907056\\
155.45454545454538	20918.09283331655\\
158.3838383838383	21013.355151097592\\
161.31313131313124	21135.366010289505\\
164.24242424242416	21282.813634708313\\
167.1717171717171	21454.500161041466\\
170.10101010101002	21649.32997132634\\
173.03030303030295	21866.299396215298\\
175.95959595959587	22104.487608012263\\
178.8888888888888	22363.048548920004\\
181.81818181818173	22641.20376216421\\
184.74747474747466	22938.236012392117\\
187.67676767676758	23253.48359757443\\
190.6060606060605	23586.335268056762\\
193.53535353535344	23936.225679808646\\
196.46464646464636	24302.63131863374\\
199.3939393939393	24685.066840402924\\
202.32323232323222	25083.081779478216\\
205.25252525252515	25496.26120776705\\
208.18181818181807	25924.645274543545\\
211.111111111111	26370.344440169156\\
214.04040404040393	26838.523295116636\\
216.96969696969686	27337.91979765472\\
219.89898989898978	27881.37966554468\\
222.8282828282827	28486.41536690141\\
225.75757575757564	29175.78958398054\\
228.68686868686856	29978.123036958026\\
231.6161616161615	30928.526566578723\\
234.54545454545442	32069.25738504273\\
237.47474747474735	33450.39941382673\\
240.40404040404027	35130.56763543908\\
243.3333333333332	37177.63639350168\\
246.26262626262613	39669.49158214244\\
249.19191919191906	42694.806671563725\\
252.12121212121198	46353.842521904066\\
255.0505050505049	50759.270942204435\\
257.97979797979787	56037.02195549137\\
260.9090909090908	62327.154734748176\\
263.8383838383838	69784.75217791731\\
266.76767676767673	78580.83909309986\\
269.6969696969697	88903.32396783211\\
272.62626262626264	100957.96429875791\\
275.5555555555556	114969.3554602101\\
278.48484848484856	131181.94309218935\\
281.4141414141415	149861.05899000276\\
284.34343434343447	171293.9804794393\\
287.2727272727274	195791.01326279022\\
290.2020202020204	223686.59772234838\\
293.13131313131333	255340.43866918542\\
296.0606060606063	291138.6585260865\\
298.98989898989925	331494.9739344859\\
301.9191919191922	376851.89577611495\\
304.84848484848516	427681.9526008877\\
307.7777777777781	484488.9374532589\\
310.70707070707107	547809.1780899304\\
313.636363636364	618212.8305824187\\
316.565656565657	696305.1962984866\\
319.49494949494994	782728.0622569749\\
322.4242424242429	878161.0648510011\\
325.35353535353585	983323.0769348993\\
328.2828282828288	1098973.6182706603\\
331.21212121212176	1225914.2893299595\\
334.1414141414147	1364990.2284481777\\
337.07070707070767	1517091.592327098\\
340.0	1683155.0598832238\\
} node[above,pos=0.22] {9000 m};

\addplot [
color=black,
dashed
]
table[row sep=crcr]{
50.0	37031.12420474018\\
52.92929292929293	36763.24692420132\\
55.858585858585855	36229.13981257142\\
58.78787878787878	35972.04627930982\\
61.71717171717171	35457.57512935742\\
64.64646464646464	35220.04485801175\\
67.57575757575756	34748.793207189185\\
70.50505050505049	34539.56294379125\\
73.43434343434342	34128.375369879795\\
76.36363636363635	33948.79686048991\\
79.29292929292927	33589.447644759224\\
82.2222222222222	33427.552364638344\\
85.15151515151513	33085.43701706748\\
88.08080808080805	32924.92471667947\\
91.01010101010098	32575.61549862935\\
93.93939393939391	32410.204663142573\\
96.86868686868684	32055.313994668242\\
99.79797979797976	31886.268599184998\\
102.72727272727269	31532.624150469994\\
105.65656565656562	31360.58973207325\\
108.58585858585855	31009.928727209797\\
111.51515151515147	30833.835269511983\\
114.4444444444444	30485.754134482213\\
117.37373737373733	30305.084015555876\\
120.30303030303025	29961.429224415046\\
123.23232323232318	29782.96132566203\\
126.16161616161611	29460.476142343123\\
129.09090909090904	29297.185808816157\\
132.02020202020196	29018.849204027614\\
134.9494949494949	28874.946166151036\\
137.87878787878782	28642.6574508514\\
140.80808080808075	28508.953138043344\\
143.73737373737367	28304.167379463495\\
146.6666666666666	28168.95977084532\\
149.59595959595953	27974.044476320698\\
152.52525252525245	27831.68913238973\\
155.45454545454538	27640.451495725167\\
158.3838383838383	27490.462853032775\\
161.31313131313124	27303.985815293974\\
164.24242424242416	27148.103265621216\\
167.1717171717171	26969.72903253031\\
170.10101010101002	26811.435929721272\\
173.03030303030295	26645.649062212568\\
175.95959595959587	26484.241051762445\\
178.8888888888888	26329.96905047645\\
181.81818181818173	26158.19970129495\\
184.74747474747466	26007.948763503322\\
187.67676767676758	25829.706559165577\\
190.6060606060605	25686.347185827697\\
193.53535353535344	25515.906104138576\\
196.46464646464636	25389.21557214916\\
199.3939393939393	25230.82164338759\\
202.32323232323222	25121.280111460495\\
205.25252525252515	24969.42220353489\\
208.18181818181807	24871.064622938215\\
211.111111111111	24720.283467063295\\
214.04040404040393	24628.223275067066\\
216.96969696969686	24474.201933740915\\
219.89898989898978	24385.37809257165\\
222.8282828282827	24230.6390993602\\
225.75757575757564	24146.188977774687\\
228.68686868686856	23996.2243386525\\
231.6161616161615	23917.394469322753\\
234.54545454545442	23765.984342024352\\
237.47474747474735	23688.797623288072\\
240.40404040404027	23531.498077277374\\
243.3333333333332	23455.11953130726\\
246.26262626262613	23302.470514678058\\
249.19191919191906	23231.41058293972\\
252.12121212121198	23090.476656651055\\
255.0505050505049	23024.58336379244\\
257.97979797979787	22884.785491612238\\
260.9090909090908	22817.178892193366\\
263.8383838383838	22663.682637116093\\
266.76767676767673	22589.94027552559\\
269.6969696969697	22423.8524126862\\
272.62626262626264	22348.386665089078\\
275.5555555555556	22187.907000430543\\
278.48484848484856	22117.017585217385\\
281.4141414141415	21971.125899006376\\
284.34343434343447	21901.35352376363\\
287.2727272727274	21754.042690750623\\
290.2020202020204	21679.068649141736\\
293.13131313131333	21522.125977730888\\
296.0606060606063	21455.49830822776\\
298.98989898989925	21330.23471334401\\
301.9191919191922	21300.031095489005\\
304.84848484848516	21258.5604073822\\
307.7777777777781	21255.56532921584\\
310.70707070707107	21256.835948143525\\
313.636363636364	21259.094190759875\\
316.565656565657	21263.442339273184\\
319.49494949494994	21264.219849904108\\
322.4242424242429	21265.199582025874\\
325.35353535353585	21265.140970940636\\
328.2828282828288	21264.97177670719\\
331.21212121212176	21264.878363825726\\
334.1414141414147	21264.7428252892\\
337.07070707070767	21264.720644204343\\
340.0	21264.693482005165\\
} node[above,pos=0.28] {0 m};

\addplot [
color=black,
dotted
]
table[row sep=crcr]{
50.0	26698.744128757062\\
52.92929292929293	26381.206585612934\\
55.858585858585855	26220.615569668345\\
58.78787878787878	25907.930903096854\\
61.71717171717171	25756.397724274044\\
64.64646464646464	25452.379798242535\\
67.57575757575756	25292.122203327242\\
70.50505050505049	25005.594665348523\\
73.43434343434342	24828.39616731369\\
76.36363636363635	24581.015363904655\\
79.29292929292927	24388.332049956236\\
82.2222222222222	24198.841529123933\\
85.15151515151513	23987.15230212355\\
88.08080808080805	23840.12807710362\\
91.01010101010098	23613.625577753115\\
93.93939393939391	23489.571988619336\\
96.86868686868684	23256.296021383696\\
99.79797979797976	23142.787659565078\\
102.72727272727269	22914.084269868257\\
105.65656565656562	22804.18609205012\\
108.58585858585855	22596.429366764554\\
111.51515151515147	22486.489398991274\\
114.4444444444444	22312.725512357498\\
117.37373737373733	22194.69345011555\\
120.30303030303025	22056.058549930127\\
123.23232323232318	21920.423428730697\\
126.16161616161611	21809.766192431376\\
129.09090909090904	21656.68497574059\\
132.02020202020196	21563.718374998152\\
134.9494949494949	21400.002085137385\\
137.87878787878782	21317.3154236041\\
140.80808080808075	21155.412081433136\\
143.73737373737367	21079.391176311892\\
146.6666666666666	20930.817595159013\\
149.59595959595953	20855.55554326445\\
152.52525252525245	20723.23080539543\\
155.45454545454538	20642.151760525496\\
158.3838383838383	20529.972966089565\\
161.31313131313124	20439.970971278908\\
164.24242424242416	20352.252410287987\\
167.1717171717171	20249.675538368385\\
170.10101010101002	20178.87248517712\\
173.03030303030295	20067.240948074625\\
175.95959595959587	20006.609991691257\\
178.8888888888888	19893.648960230224\\
181.81818181818173	19839.48402142457\\
184.74747474747466	19732.104394018395\\
187.67676767676758	19681.628801539362\\
190.6060606060605	19587.5709020754\\
193.53535353535344	19539.32847776563\\
196.46464646464636	19463.982987615313\\
199.3939393939393	19411.46563088495\\
202.32323232323222	19350.31455980592\\
205.25252525252515	19280.04199325182\\
208.18181818181807	19223.00125580052\\
211.111111111111	19135.02173826798\\
214.04040404040393	19083.06019927792\\
216.96969696969686	19002.604321365485\\
219.89898989898978	18966.109878499912\\
222.8282828282827	18910.104636731106\\
225.75757575757564	18887.27788259684\\
228.68686868686856	18847.994957733554\\
231.6161616161615	18827.15858962404\\
234.54545454545442	18790.270708112585\\
237.47474747474735	18762.09047497017\\
240.40404040404027	18722.85669429415\\
243.3333333333332	18686.051918759615\\
246.26262626262613	18650.511294962664\\
249.19191919191906	18610.749631433897\\
252.12121212121198	18583.899015706877\\
255.0505050505049	18548.04433922398\\
257.97979797979787	18529.457626222837\\
260.9090909090908	18499.569982133267\\
263.8383838383838	18485.809413595114\\
266.76767676767673	18459.854517428175\\
269.6969696969697	18446.926986329872\\
272.62626262626264	18422.27092507871\\
275.5555555555556	18409.308257360302\\
278.48484848484856	18389.11773027492\\
281.4141414141415	18380.442983703197\\
284.34343434343447	18370.609653254593\\
287.2727272727274	18368.38339882763\\
290.2020202020204	18366.682292704707\\
293.13131313131333	18367.19311999272\\
296.0606060606063	18367.48941938739\\
298.98989898989925	18367.916386007368\\
301.9191919191922	18368.067632029415\\
304.84848484848516	18368.125760327857\\
307.7777777777781	18368.129261083584\\
310.70707070707107	18368.10084838745\\
313.636363636364	18368.09202921883\\
316.565656565657	18368.079321461737\\
319.49494949494994	18368.078027452353\\
322.4242424242429	18368.076897836465\\
325.35353535353585	18368.076893662368\\
328.2828282828288	18368.076893662368\\
331.21212121212176	18368.076893662368\\
334.1414141414147	18368.076893662368\\
337.07070707070767	18368.076893662368\\
340.0	18368.076893662368\\
} node[above,pos=0.34] {4500 m};

\addplot [
color=black,
loosely dashed
]
table[row sep=crcr]{
50.0	17478.512541286098\\
52.92929292929293	17387.68803318255\\
55.858585858585855	17219.35553059283\\
58.78787878787878	17125.277511175987\\
61.71717171717171	16991.91067893241\\
64.64646464646464	16875.85600616075\\
67.57575757575756	16784.078285164032\\
70.50505050505049	16650.00603178241\\
73.43434343434342	16581.08618973343\\
76.36363636363635	16458.567468436042\\
79.29292929292927	16395.84037212284\\
82.2222222222222	16302.46238057344\\
85.15151515151513	16224.990245094192\\
88.08080808080805	16157.962719679732\\
91.01010101010098	16051.026996396475\\
93.93939393939391	15991.248044368009\\
96.86868686868684	15875.735313000527\\
99.79797979797976	15818.004905820215\\
102.72727272727269	15727.619499035234\\
105.65656565656562	15668.509668972909\\
108.58585858585855	15613.784669424376\\
111.51515151515147	15544.388685327405\\
114.4444444444444	15504.958699717665\\
117.37373737373733	15432.14911942474\\
120.30303030303025	15395.12276373724\\
123.23232323232318	15333.806856180632\\
126.16161616161611	15289.388166983204\\
129.09090909090904	15244.365827725867\\
132.02020202020196	15176.15079834053\\
134.9494949494949	15135.108441489529\\
137.87878787878782	15057.814351277053\\
140.80808080808075	15023.607182951757\\
143.73737373737367	14969.063134454655\\
146.6666666666666	14940.125834326043\\
149.59595959595953	14908.923427080634\\
152.52525252525245	14870.207317866394\\
155.45454545454538	14845.783468790345\\
158.3838383838383	14801.121531490993\\
161.31313131313124	14777.69156979267\\
164.24242424242416	14735.080766069641\\
167.1717171717171	14704.105285156362\\
170.10101010101002	14667.142963716138\\
173.03030303030295	14625.446045506495\\
175.95959595959587	14598.455758582722\\
178.8888888888888	14557.894425327788\\
181.81818181818173	14539.366431562039\\
184.74747474747466	14508.793858071369\\
187.67676767676758	14494.493616528476\\
190.6060606060605	14476.825001053689\\
193.53535353535344	14462.063063266814\\
196.46464646464636	14451.539717720949\\
199.3939393939393	14433.734719763695\\
202.32323232323222	14424.131307879426\\
205.25252525252515	14405.563447989667\\
208.18181818181807	14393.518099419352\\
211.111111111111	14376.674622385553\\
214.04040404040393	14358.812283316116\\
216.96969696969686	14345.360996055415\\
219.89898989898978	14327.406342992392\\
222.8282828282827	14319.901095314886\\
225.75757575757564	14310.501118668977\\
228.68686868686856	14305.677624925573\\
231.6161616161615	14298.706767874102\\
234.54545454545442	14283.566111889004\\
237.47474747474735	14270.400115667186\\
240.40404040404027	14239.103027429026\\
243.3333333333332	14222.002814079333\\
246.26262626262613	14189.413061752495\\
249.19191919191906	14175.542461532277\\
252.12121212121198	14155.483329466626\\
255.0505050505049	14147.895925166089\\
257.97979797979787	14141.423275317518\\
260.9090909090908	14139.126850036842\\
263.8383838383838	14138.251483336693\\
266.76767676767673	14138.148916584843\\
269.6969696969697	14138.165184747524\\
272.62626262626264	14138.23231666011\\
275.5555555555556	14138.253185547308\\
278.48484848484856	14138.272218093716\\
281.4141414141415	14138.27233470663\\
284.34343434343447	14138.272007585443\\
287.2727272727274	14138.26955093432\\
290.2020202020204	14138.268898475271\\
293.13131313131333	14138.268260313906\\
296.0606060606063	14138.268220715088\\
298.98989898989925	14138.26819636809\\
301.9191919191922	14138.26819636809\\
304.84848484848516	14138.26819636809\\
307.7777777777781	14138.26819636809\\
310.70707070707107	14138.26819636809\\
313.636363636364	14138.26819636809\\
316.565656565657	14138.26819636809\\
319.49494949494994	14138.26819636809\\
322.4242424242429	14138.26819636809\\
325.35353535353585	14138.26819636809\\
328.2828282828288	14138.26819636809\\
331.21212121212176	14138.26819636809\\
334.1414141414147	14138.26819636809\\
337.07070707070767	14138.26819636809\\
340.0	14138.26819636809\\
} node[above,pos=0.4] {9000 m};
\end{axis}
\end{tikzpicture}%
