%TotalThrustAndDragVsSpeed_Phi075_CRUISE
\begin{tikzpicture}

\begin{axis}[
width=\figurewidth,
height=\figureheight,
scaled ticks=false, tick label style={/pgf/number format/fixed},
xmin=46.0,
xmax=256.8369602209476,
xlabel={Speed (m/s)},
xmajorgrids,
ymin=0.0,
ymax=124000.0,
ylabel={Total Thrust, Drag (N)},
ymajorgrids,
legend style={at={(1.03,0.5)},anchor=west,draw=black,fill=white,legend cell align=left}
]

\addplot [
color=black,
solid
]
table[row sep=crcr]{
50.0	37801.51772124587\\
52.92929292929293	34475.03276123814\\
55.858585858585855	31740.38743685851\\
58.78787878787878	29486.948331804062\\
61.71717171717171	27629.697205062304\\
64.64646464646464	26102.430183636818\\
67.57575757575756	24852.97393574491\\
70.50505050505049	23839.763049938352\\
73.43434343434342	23029.35331044205\\
76.36363636363635	22394.589422212463\\
79.29292929292927	21913.237497150374\\
82.2222222222222	21566.9522969692\\
85.15151515151513	21340.488753299276\\
88.08080808080805	21221.09389617909\\
91.01010101010098	21198.0335125969\\
93.93939393939391	21262.220467774532\\
96.86868686868684	21405.920479777582\\
99.79797979797976	21622.5174358585\\
102.72727272727269	21906.324867668314\\
105.65656565656562	22252.433493783457\\
108.58585858585855	22656.587153892557\\
111.51515151515147	23115.081248948674\\
114.4444444444444	23624.67913949231\\
117.37373737373733	24182.54296267728\\
120.30303030303025	24786.17609443754\\
123.23232323232318	25433.37506932175\\
126.16161616161611	26122.189222164612\\
129.09090909090904	26850.886666123795\\
132.02020202020196	27617.925495123596\\
134.9494949494949	28421.929313553937\\
137.87878787878782	29261.66636574417\\
140.80808080808075	30136.031672483405\\
143.73737373737367	31044.03168943755\\
146.6666666666666	31984.771088626774\\
149.59595959595953	32957.441333709496\\
152.52525252525245	33961.310776169856\\
155.45454545454538	34995.71604534091\\
158.3838383838383	36060.05454263427\\
161.31313131313124	37153.77788105062\\
164.24242424242416	38276.38613632278\\
167.1717171717171	39427.42279693152\\
170.10101010101002	40606.4703175564\\
173.03030303030295	41813.14619494024\\
175.95959595959587	43047.0994971811\\
178.8888888888888	44308.00778754823\\
181.81818181818173	45595.57439238865\\
184.74747474747466	46909.52596983007\\
187.67676767676758	48249.61034201923\\
190.6060606060605	49615.59455874766\\
193.53535353535344	51007.26316466285\\
196.46464646464636	52424.41664596497\\
199.3939393939393	53866.87003565206\\
202.32323232323222	55334.45165908424\\
205.25252525252515	56827.0020039628\\
208.18181818181807	58344.37270081891\\
211.111111111111	59886.42560183118\\
214.04040404040393	61453.031947281444\\
216.96969696969686	63044.0716102477\\
219.89898989898978	64659.43241125316\\
222.8282828282827	66299.0094955632\\
225.75757575757564	67962.70476666969\\
228.68686868686856	69650.42637024308\\
231.6161616161615	71362.08822347774\\
234.54545454545442	73097.6095853247\\
237.47474747474735	74856.91466360177\\
240.40404040404027	76640.09321661758\\
243.3333333333332	78450.36839395229\\
246.26262626262613	80298.76848222327\\
249.19191919191906	82205.7312699624\\
252.12121212121198	84202.20937526097\\
255.0505050505049	86330.8144854937\\
257.97979797979787	88647.000673123\\
260.9090909090908	91220.28676740637\\
263.8383838383838	94135.51776384312\\
266.76767676767673	97494.16525499137\\
269.6969696969697	101415.66686788903\\
272.62626262626264	106038.80469474339\\
275.5555555555556	111523.12270483536\\
278.48484848484856	118050.38312673081\\
281.4141414141415	125826.0617909198\\
284.34343434343447	135080.88242392894\\
287.2727272727274	146072.38988577775\\
290.2020202020204	159086.56234340018\\
293.13131313131333	174439.4623733184\\
296.0606060606063	192478.92698746806\\
298.98989898989925	213586.29657660928\\
301.9191919191922	238178.18276626317\\
304.84848484848516	266708.2751805459\\
307.7777777777781	299669.18710968463\\
310.70707070707107	337594.3400773603\\
313.636363636364	381059.8873043496\\
316.565656565657	430686.6760652424\\
319.49494949494994	487142.24893528456\\
322.4242424242429	551142.8839246344\\
325.35353535353585	623455.673497549\\
328.2828282828288	704900.6424742338\\
331.21212121212176	796352.9048132446\\
334.1414141414147	898744.8592725424\\
337.07070707070767	1013068.423947414\\
} node[above,pos=0.1] {altitude = 0 m};

\addplot [
color=black,
densely dashed
]
table[row sep=crcr]{
50.0	56531.42499628573\\
52.92929292929293	50917.861011329915\\
55.858585858585855	46216.30780181151\\
58.78787878787878	42252.35192147621\\
61.71717171717171	38891.96221676311\\
64.64646464646464	36030.76836240734\\
67.57575757575756	33586.5191643044\\
70.50505050505049	31493.686801856005\\
73.43434343434342	29699.546509566055\\
76.36363636363635	28161.28799782341\\
79.29292929292927	26843.859569079494\\
82.2222222222222	25718.339977486125\\
85.15151515151513	24760.69539129887\\
88.08080808080805	23950.82076888299\\
91.01010101010098	23271.793636479924\\
93.93939393939391	22709.288137163214\\
96.86868686868684	22251.111184869376\\
99.79797979797976	21886.832485898092\\
102.72727272727269	21607.487329812833\\
105.65656565656562	21405.336240419783\\
108.58585858585855	21273.669386164205\\
111.51515151515147	21206.64647115397\\
114.4444444444444	21199.164937217425\\
117.37373737373733	21246.75089702882\\
120.30303030303025	21345.46842578435\\
123.23232323232318	21491.84376287971\\
126.16161616161611	21682.801687054114\\
129.09090909090904	21915.611880806875\\
132.02020202020196	22187.843531084847\\
134.9494949494949	22497.326751882632\\
137.87878787878782	22842.11968188346\\
140.80808080808075	23220.480322705214\\
143.73737373737367	23630.84235291348\\
146.6666666666666	24071.79428903691\\
149.59595959595953	24542.061474516307\\
152.52525252525245	25040.490466356223\\
155.45454545454538	25566.035461506966\\
158.3838383838383	26117.746464026815\\
161.31313131313124	26694.75894247825\\
164.24242424242416	27296.284766862078\\
167.1717171717171	27921.60424732338\\
170.10101010101002	28570.059124172305\\
173.03030303030295	29241.04638148909\\
175.95959595959587	29934.012775557134\\
178.8888888888888	30648.4499852625\\
181.81818181818173	31383.89030495207\\
184.74747474747466	32139.902811496653\\
187.67676767676758	32916.08994681723\\
190.6060606060605	33712.08446519344\\
193.53535353535344	34527.546701524094\\
196.46464646464636	35362.16212254646\\
199.3939393939393	36215.6391280068\\
202.32323232323222	37087.70707304417\\
205.25252525252515	37978.11448671364\\
208.18181818181807	38886.62746472803\\
211.111111111111	39813.02821721497\\
214.04040404040393	40757.113754635306\\
216.96969696969686	41718.69469704263\\
219.89898989898978	42697.59419362823\\
222.8282828282827	43693.64695976997\\
225.75757575757564	44706.986352711974\\
228.68686868686856	45740.55206826858\\
231.6161616161615	46802.55618384613\\
234.54545454545442	47907.37241699463\\
237.47474747474735	49076.334838563125\\
240.40404040404027	50338.567688184696\\
243.3333333333332	51731.84623716184\\
246.26262626262613	53303.48864952269\\
249.19191919191906	55111.278797080384\\
252.12121212121198	57224.41998882487\\
255.0505050505049	59724.51957897915\\
257.97979797979787	62706.60442161683\\
260.9090909090908	66280.16714291775\\
263.8383838383838	70570.24320497601\\
266.76767676767673	75718.51873761295\\
269.6969696969697	81884.4691169148\\
272.62626262626264	89246.52827124999\\
275.5555555555556	98003.28869734098\\
278.48484848484856	108374.73217060156\\
281.4141414141415	120603.4911354197\\
284.34343434343447	134956.1407623856\\
287.2727272727274	151724.52166065527\\
290.2020202020204	171227.09323470853\\
293.13131313131333	193810.31767572515\\
296.0606060606063	219850.07457868164\\
298.98989898989925	249753.10617704398\\
301.9191919191922	283958.4931876594\\
304.84848484848516	322939.16125908354\\
307.7777777777781	367203.4180171662\\
310.70707070707107	417296.5207022424\\
313.636363636364	473802.27439277474\\
316.565656565657	537344.6608106925\\
319.49494949494994	608589.4977041017\\
322.4242424242429	688246.1288033954\\
325.35353535353585	777069.1443470942\\
328.2828282828288	875860.1321740729\\
331.21212121212176	985469.4593791119\\
334.1414141414147	1106798.0845288914\\
337.07070707070767	1240799.4004358824\\
} node[above,pos=0.16] {4500 m};

\addplot [
color=black,
dashdotted
]
table[row sep=crcr]{
50.0	92325.40927245517\\
52.92929292929293	82303.39627589408\\
55.858585858585855	74154.84987590791\\
58.78787878787878	67265.20466683949\\
61.71717171717171	61365.268935563334\\
64.64646464646464	56280.79045677831\\
67.57575757575756	51874.93038128976\\
70.50505050505049	48038.672035740994\\
73.43434343434342	44684.298806250634\\
76.36363636363635	41740.588495647586\\
79.29292929292927	39149.22664409831\\
82.2222222222222	36862.097840729766\\
85.15151515151513	34839.21771919387\\
88.08080808080805	33047.13812362781\\
91.01010101010098	31457.705641064666\\
93.93939393939391	30047.086772223585\\
96.86868686868684	28794.99624485743\\
99.79797979797976	27684.08149159923\\
102.72727272727269	26699.428192081366\\
105.65656565656562	25828.16041146466\\
108.58585858585855	25059.115203870537\\
111.51515151515147	24382.576243870066\\
114.4444444444444	23790.054558193537\\
117.37373737373733	23274.107074436375\\
120.30303030303025	22828.185712336228\\
123.23232323232318	22446.511280373223\\
126.16161616161611	22123.96762500179\\
129.09090909090904	21856.012398736293\\
132.02020202020196	21638.601530673932\\
134.9494949494949	21468.1250464296\\
137.87878787878782	21341.352329466048\\
140.80808080808075	21255.385269226885\\
143.73737373737367	21207.61802363427\\
146.6666666666666	21195.702349893905\\
149.59595959595953	21217.517640048936\\
152.52525252525245	21271.14494551962\\
155.45454545454538	21354.84439508146\\
158.3838383838383	21467.035508927194\\
161.31313131313124	21606.27999198657\\
164.24242424242416	21771.266655974978\\
167.1717171717171	21960.798174426865\\
170.10101010101002	22173.779420403236\\
173.03030303030295	22409.207174371437\\
175.95959595959587	22666.161021323194\\
178.8888888888888	22943.7952826394\\
181.81818181818173	23241.33185042711\\
184.74747474747466	23558.05381077726\\
187.67676767676758	23893.299758215897\\
190.6060606060605	24246.458717032674\\
193.53535353535344	24616.96559656764\\
196.46464646464636	25004.297117248072\\
199.3939393939393	25407.968152461755\\
202.32323232323222	25827.528438456113\\
205.25252525252515	26262.578241372055\\
208.18181818181807	26713.428605833713\\
211.111111111111	27182.655651355617\\
214.04040404040393	27675.846869326895\\
216.96969696969686	28202.10614284728\\
219.89898989898978	28774.582614951683\\
222.8282828282827	29411.024352160817\\
225.75757575757564	30134.356660022204\\
228.68686868686856	30973.28492213052\\
231.6161616161615	31962.92184731783\\
234.54545454545442	33145.43902146684\\
237.47474747474735	34570.74267088771\\
240.40404040404027	36297.1735535563\\
243.3333333333332	38392.23090286598\\
246.26262626262613	40933.320356010234\\
249.19191919191906	44008.525805788064\\
252.12121212121198	47717.40512059713\\
255.0505050505049	52171.80968272945\\
257.97979797979787	57496.72769987838\\
260.9090909090908	63831.15124906617\\
263.8383838383838	71328.96701606293\\
266.76767676767673	80159.8706968348\\
269.6969696969697	90510.30503067923\\
272.62626262626264	102584.42143750885\\
275.5555555555556	116605.06523427778\\
278.48484848484856	132814.7844078158\\
281.4141414141415	151476.8619233945\\
284.34343434343447	172876.3715502034\\
287.2727272727274	197321.2571865884\\
290.2020202020204	225143.4356694204\\
293.13131313131333	256699.92305333432\\
296.0606060606063	292373.98434681573\\
298.98989898989925	332576.3066932428\\
301.9191919191922	377746.1959860033\\
304.84848484848516	428352.7969077408\\
307.7777777777781	484896.33638462174\\
310.70707070707107	547909.3904472702\\
313.636363636364	617958.1744907291\\
316.565656565657	695643.8569264251\\
319.49494949494994	781603.8962196936\\
322.4242424242429	876513.4013069533\\
325.35353535353585	981086.5153870807\\
328.2828282828288	1096077.823081996\\
331.21212121212176	1222283.7809618532\\
334.1414141414147	1360544.1714305836\\
337.07070707070767	1511743.5799679158\\
} node[above,pos=0.22] {9000 m};

\addplot [
color=black,
dashed
]
table[row sep=crcr]{
50.0	61676.94256690106\\
52.92929292929293	61360.37629813659\\
55.858585858585855	60726.286108573295\\
58.78787878787878	60417.57695501969\\
61.71717171717171	59782.07089194446\\
64.64646464646464	59480.11299237487\\
67.57575757575756	58845.26925670855\\
70.50505050505049	58548.97878371002\\
73.43434343434342	57916.845178345895\\
76.36363636363635	57625.15691131361\\
79.29292929292927	56997.75546954375\\
82.2222222222222	56709.63388254182\\
85.15151515151513	56088.9461711176\\
88.08080808080805	55803.384322998914\\
91.01010101010098	55191.31935992658\\
93.93939393939391	54907.343651335\\
96.86868686868684	54305.745773295486\\
99.79797979797976	54022.42150829034\\
102.72727272727269	53433.045491876925\\
105.65656565656562	53149.479651778514\\
108.58585858585855	52573.98581406653\\
111.51515151515147	52289.32870527686\\
114.4444444444444	51729.26786567257\\
117.37373737373733	51442.716749214866\\
120.30303030303025	50899.52895341447\\
123.23232323232318	50610.331351290966\\
126.16161616161611	50085.336493504336\\
129.09090909090904	49792.79149652268\\
132.02020202020196	49287.186868777615\\
134.9494949494949	48990.64357852558\\
137.87878787878782	48505.49576747698\\
140.80808080808075	48204.35786998546\\
143.73737373737367	47740.60890422229\\
146.6666666666666	47434.32955648299\\
149.59595959595953	46992.790902830464\\
152.52525252525245	46680.87352798974\\
155.45454545454538	46262.23347702518\\
158.3838383838383	45944.23224206593\\
161.31313131313124	45549.05752956832\\
164.24242424242416	45224.56894382964\\
167.1717171717171	44853.30356121868\\
170.10101010101002	44521.96920792054\\
173.03030303030295	44174.94592167262\\
175.95959595959587	43836.44553133344\\
178.8888888888888	43512.93122918479\\
181.81818181818173	43167.94137495003\\
184.74747474747466	42866.21232112126\\
187.67676767676758	42516.32934777708\\
190.6060606060605	42234.70964391216\\
193.53535353535344	41881.41637682213\\
196.46464646464636	41618.29205278566\\
199.3939393939393	41262.950246402026\\
202.32323232323222	41016.75854145197\\
205.25252525252515	40660.61913629862\\
208.18181818181807	40429.86166757959\\
211.111111111111	40074.056713332844\\
214.04040404040393	39857.29326700481\\
216.96969696969686	39502.84864422436\\
219.89898989898978	39298.703138604615\\
222.8282828282827	38946.5284453669\\
225.75757575757564	38753.68562293035\\
228.68686868686856	38404.59478524424\\
231.6161616161615	38221.80192057679\\
234.54545454545442	37876.50444876812\\
237.47474747474735	37702.566066142375\\
240.40404040404027	37361.67916543714\\
243.3333333333332	37195.45661986288\\
246.26262626262613	36859.510666995964\\
249.19191919191906	36699.91838854479\\
252.12121212121198	36369.359585838596\\
255.0505050505049	36215.36248610683\\
257.97979797979787	35890.563740213256\\
260.9090909090908	35741.1723292167\\
263.8383838383838	35422.438732974304\\
266.76767676767673	35276.70379087988\\
269.6969696969697	34964.27333157002\\
272.62626262626264	34821.28167443541\\
275.5555555555556	34515.344126072436\\
278.48484848484856	34374.21332151157\\
281.4141414141415	34074.905134081426\\
284.34343434343447	33934.77622309112\\
287.2727272727274	33642.19176347637\\
290.2020202020204	33502.222534114204\\
293.13131313131333	33216.420903904575\\
296.0606060606063	33075.78161512775\\
298.98989898989925	32796.79696602363\\
301.9191919191922	32654.66021433448\\
304.84848484848516	32382.500334654822\\
307.7777777777781	32238.032600947005\\
310.70707070707107	31972.68938479504\\
313.636363636364	31825.04550103414\\
316.565656565657	31566.503780139083\\
319.49494949494994	31414.82354716571\\
322.4242424242429	31163.083436137586\\
325.35353535353585	31006.505066848455\\
328.2828282828288	30761.618449614725\\
331.21212121212176	30599.30869893344\\
334.1414141414147	30361.433508874507\\
337.07070707070767	30192.61324561883\\
} node[above,pos=0.28] {0 m};

\addplot [
color=black,
dotted
]
table[row sep=crcr]{
50.0	44413.01777942301\\
52.92929292929293	44104.369645735605\\
55.858585858585855	43806.05119871183\\
58.78787878787878	43498.95277614753\\
61.71717171717171	43203.09994154453\\
64.64646464646464	42898.802514980845\\
67.57575757575756	42604.998498078145\\
70.50505050505049	42304.72145403907\\
73.43434343434342	42012.56801782233\\
76.36363636363635	41717.49312080974\\
79.29292929292927	41426.62211904116\\
82.2222222222222	41137.65821228502\\
85.15151515151513	40847.95416432602\\
88.08080808080805	40564.79544105613\\
91.01010101010098	40277.31999676043\\
93.93939393939391	39999.50759737873\\
96.86868686868684	39715.43643854285\\
99.79797979797976	39442.52546274755\\
102.72727272727269	39162.97577355988\\
105.65656565656562	38894.5376829376\\
108.58585858585855	38620.55342807038\\
111.51515151515147	38356.17406000044\\
114.4444444444444	38088.720735387265\\
117.37373737373733	37828.007859180056\\
120.30303030303025	37567.97028898643\\
123.23232323232318	37310.55257397555\\
126.16161616161611	37057.991832330634\\
129.09090909090904	36804.255452581165\\
132.02020202020196	36558.62585814455\\
134.9494949494949	36309.49317769252\\
137.87878787878782	36070.26271272992\\
140.80808080808075	35826.571964719624\\
143.73737373737367	35593.23064710814\\
146.6666666666666	35355.73208317967\\
149.59595959595953	35127.789483056666\\
152.52525252525245	34897.140852602635\\
155.45454545454538	34674.1278290295\\
158.3838383838383	34450.89835679918\\
161.31313131313124	34232.36947596762\\
164.24242424242416	34016.86803221421\\
167.1717171717171	33802.56853519662\\
170.10101010101002	33594.2678146293\\
173.03030303030295	33384.72241872939\\
175.95959595959587	33183.02200641368\\
178.8888888888888	32978.76206871564\\
181.81818181818173	32783.08007237928\\
184.74747474747466	32584.555872717217\\
187.67676767676758	32394.34324606436\\
190.6060606060605	32201.932213875654\\
193.53535353535344	32016.66289694007\\
196.46464646464636	31830.656796761024\\
199.3939393939393	31649.829749793673\\
202.32323232323222	31470.45325054055\\
205.25252525252515	31293.593945696506\\
208.18181818181807	31120.552633277905\\
211.111111111111	30947.65796117959\\
214.04040404040393	30780.330631528024\\
216.96969696969686	30611.691211254918\\
219.89898989898978	30449.486698764224\\
222.8282828282827	30285.321625785582\\
225.75757575757564	30127.673410205378\\
228.68686868686856	29968.149209392355\\
231.6161616161615	29814.517895796744\\
234.54545454545442	29659.745111059805\\
237.47474747474735	29509.61091555543\\
240.40404040404027	29359.652967527752\\
243.3333333333332	29212.519825461615\\
246.26262626262613	29067.29678564494\\
249.19191919191906	28922.78443364919\\
252.12121212121198	28781.75020108092\\
255.0505050505049	28639.922258239225\\
257.97979797979787	28502.50828688516\\
260.9090909090908	28363.432361117055\\
263.8383838383838	28229.085424296012\\
266.76767676767673	28092.793281916856\\
269.6969696969697	27960.978073767\\
272.62626262626264	27827.470770950502\\
275.5555555555556	27697.658157071695\\
278.48484848484856	27566.901452462058\\
281.4141414141415	27438.572053815766\\
284.34343434343447	27310.515938262375\\
287.2727272727274	27183.154151548755\\
290.2020202020204	27057.429906992904\\
293.13131313131333	26930.809190090244\\
296.0606060606063	26806.849175880634\\
298.98989898989925	26680.920823095108\\
301.9191919191922	26558.164398175995\\
304.84848484848516	26432.86732748236\\
307.7777777777781	26310.770508478196\\
310.70707070707107	26186.05725322893\\
313.636363636364	26064.118395661335\\
316.565656565657	25939.997828552616\\
319.49494949494994	25614.48881165976\\
322.4242424242429	25247.524373663568\\
325.35353535353585	25247.524373663568\\
328.2828282828288	25247.524373663568\\
331.21212121212176	25247.524373663568\\
334.1414141414147	25247.524373663568\\
337.07070707070767	25247.524373663568\\
} node[above,pos=0.34] {4500 m};

\addplot [
color=black,
loosely dashed
]
table[row sep=crcr]{
50.0	24791.872488822766\\
52.92929292929293	24702.861241403745\\
55.858585858585855	24609.87419159179\\
58.78787878787878	24521.546667346578\\
61.71717171717171	24431.491711398226\\
64.64646464646464	24342.80872889221\\
67.57575757575756	24256.349510012988\\
70.50505050505049	24167.423691761906\\
73.43434343434342	24083.507234714794\\
76.36363636363635	23996.12685347617\\
79.29292929292927	23913.721355661153\\
82.2222222222222	23829.61103685141\\
85.15151515151513	23747.73350166222\\
88.08080808080805	23667.77134645111\\
91.01010101010098	23586.23058112358\\
93.93939393939391	23509.4577559068\\
96.86868686868684	23429.835080668207\\
99.79797979797976	23355.260008197914\\
102.72727272727269	23279.10435975973\\
105.65656565656562	23205.792866140906\\
108.58585858585855	23134.06850986991\\
111.51515151515147	23061.59702016251\\
114.4444444444444	22993.47446166587\\
117.37373737373733	22923.138081924004\\
120.30303030303025	22857.66856839637\\
123.23232323232318	22790.8005862444\\
126.16161616161611	22727.10232547819\\
129.09090909090904	22664.65120549733\\
132.02020202020196	22602.149796290738\\
134.9494949494949	22543.438449153073\\
137.87878787878782	22483.102136600624\\
140.80808080808075	22427.23639975832\\
143.73737373737367	22370.17434010633\\
146.6666666666666	22316.330464050134\\
149.59595959595953	22263.396061311778\\
152.52525252525245	22210.92900490586\\
155.45454545454538	22161.61253020987\\
158.3838383838383	22111.165206552734\\
161.31313131313124	22064.639463469877\\
164.24242424242416	22017.10637999129\\
167.1717171717171	21972.616436836048\\
170.10101010101002	21928.716780731018\\
173.03030303030295	21885.612147934786\\
175.95959595959587	21845.001456244067\\
178.8888888888888	21803.635559483868\\
181.81818181818173	21765.56624228435\\
184.74747474747466	21726.642335680895\\
187.67676767676758	21690.43635466106\\
190.6060606060605	21654.531388315696\\
193.53535353535344	21619.58002102706\\
196.46464646464636	21586.502190041465\\
199.3939393939393	21552.922721765586\\
202.32323232323222	21522.011810612166\\
205.25252525252515	21490.349578484656\\
208.18181818181807	21461.0071813138\\
211.111111111111	21431.711382585454\\
214.04040404040393	21403.39824752414\\
216.96969696969686	21376.41031547086\\
219.89898989898978	21349.06295081827\\
222.8282828282827	21323.809285936823\\
225.75757575757564	21297.85293951308\\
228.68686868686856	21273.813135529108\\
231.6161616161615	21249.604031407005\\
234.54545454545442	21226.30205308965\\
237.47474747474735	21203.87176522638\\
240.40404040404027	21181.136078018408\\
243.3333333333332	21160.004969523226\\
246.26262626262613	21138.164288800363\\
249.19191919191906	21117.876387215496\\
252.12121212121198	21097.22454531822\\
255.0505050505049	21077.35700390766\\
257.97979797979787	21057.991803415982\\
260.9090909090908	21038.30930411065\\
263.8383838383838	21019.835368926717\\
266.76767676767673	21000.5895869942\\
269.6969696969697	20982.600236363116\\
272.62626262626264	20964.05305934982\\
275.5555555555556	20946.16191527077\\
278.48484848484856	20928.462645820717\\
281.4141414141415	20910.391116482537\\
284.34343434343447	20893.21975600291\\
287.2727272727274	20875.16820498321\\
290.2020202020204	20858.159125535876\\
293.13131313131333	20840.394011486474\\
296.0606060606063	20823.20356500933\\
298.98989898989925	20800.955919415133\\
301.9191919191922	20421.2992496059\\
304.84848484848516	20421.2992496059\\
307.7777777777781	20421.2992496059\\
310.70707070707107	20421.2992496059\\
313.636363636364	20421.2992496059\\
316.565656565657	20421.2992496059\\
319.49494949494994	20421.2992496059\\
322.4242424242429	20421.2992496059\\
325.35353535353585	20421.2992496059\\
328.2828282828288	20421.2992496059\\
331.21212121212176	20421.2992496059\\
334.1414141414147	20421.2992496059\\
337.07070707070767	20421.2992496059\\
} node[above,pos=0.4] {9000 m};
\end{axis}
\end{tikzpicture}%
